EESchema Schematic File Version 2
LIBS:power
LIBS:device
LIBS:transistors
LIBS:conn
LIBS:linear
LIBS:regul
LIBS:74xx
LIBS:cmos4000
LIBS:adc-dac
LIBS:memory
LIBS:xilinx
LIBS:microcontrollers
LIBS:dsp
LIBS:microchip
LIBS:analog_switches
LIBS:motorola
LIBS:texas
LIBS:intel
LIBS:audio
LIBS:interface
LIBS:digital-audio
LIBS:philips
LIBS:display
LIBS:cypress
LIBS:siliconi
LIBS:opto
LIBS:atmel
LIBS:contrib
LIBS:valves
LIBS:switches
LIBS:mylib
LIBS:74xgxx
LIBS:74hc4067
LIBS:distribution-deck-cache
EELAYER 25 0
EELAYER END
$Descr A4 11693 8268
encoding utf-8
Sheet 1 1
Title "power/signal distribution board"
Date "2018-02-19"
Rev "1"
Comp "A&O MECANUMROVER"
Comment1 ""
Comment2 ""
Comment3 ""
Comment4 ""
$EndDescr
$Comp
L L L1
U 1 1 5A8A7669
P 9250 1800
F 0 "L1" V 9200 1800 50  0000 C CNN
F 1 "L" H 9325 1800 50  0000 C CNN
F 2 "" H 9250 1800 50  0001 C CNN
F 3 "" H 9250 1800 50  0001 C CNN
	1    9250 1800
	0    -1   -1   0   
$EndComp
$Comp
L D D2
U 1 1 5A8A76D8
P 9650 1800
F 0 "D2" H 9650 1900 50  0000 C CNN
F 1 "1N4003" H 9650 1700 50  0000 C CNN
F 2 "" H 9650 1800 50  0001 C CNN
F 3 "" H 9650 1800 50  0001 C CNN
	1    9650 1800
	1    0    0    -1  
$EndComp
$Comp
L CP1 C4
U 1 1 5A8A774F
P 8950 1950
F 0 "C4" H 8975 2050 50  0000 L CNN
F 1 "470uF" H 8975 1850 50  0000 L CNN
F 2 "" H 8950 1950 50  0001 C CNN
F 3 "" H 8950 1950 50  0001 C CNN
	1    8950 1950
	1    0    0    -1  
$EndComp
$Comp
L CONN_01X04 J9
U 1 1 5A8A777C
P 10400 2150
F 0 "J9" H 10400 2400 50  0000 C CNN
F 1 "CONN_01X04" V 10500 2150 50  0000 C CNN
F 2 "" H 10400 2150 50  0001 C CNN
F 3 "" H 10400 2150 50  0001 C CNN
	1    10400 2150
	1    0    0    -1  
$EndComp
$Comp
L CONN_01X02 J6
U 1 1 5A8A7803
P 7700 1750
F 0 "J6" H 7700 1900 50  0000 C CNN
F 1 "CONN_12V" V 7800 1750 50  0000 C CNN
F 2 "" H 7700 1750 50  0001 C CNN
F 3 "" H 7700 1750 50  0001 C CNN
	1    7700 1750
	-1   0    0    1   
$EndComp
$Comp
L CONN_01X02 J8
U 1 1 5A8A787C
P 8300 4050
F 0 "J8" H 8300 4200 50  0000 C CNN
F 1 "CONN_3V3" V 8400 4150 50  0000 C CNN
F 2 "" H 8300 4050 50  0001 C CNN
F 3 "" H 8300 4050 50  0001 C CNN
	1    8300 4050
	-1   0    0    1   
$EndComp
$Comp
L BS170 Q1
U 1 1 5A8A78E1
P 2250 2000
F 0 "Q1" H 2450 2075 50  0000 L CNN
F 1 "BS170" H 2450 2000 50  0000 L CNN
F 2 "TO_SOT_Packages_THT:TO-92_Molded_Narrow" H 2450 1925 50  0001 L CIN
F 3 "" H 2250 2000 50  0001 L CNN
	1    2250 2000
	-1   0    0    1   
$EndComp
$Comp
L D D1
U 1 1 5A8A7B47
P 5750 2100
F 0 "D1" H 5750 2200 50  0000 C CNN
F 1 "1N4148" H 5750 2000 50  0000 C CNN
F 2 "" H 5750 2100 50  0001 C CNN
F 3 "" H 5750 2100 50  0001 C CNN
	1    5750 2100
	0    -1   -1   0   
$EndComp
$Comp
L CONN_02X08 J2
U 1 1 5A8A7BE6
P 2400 2650
F 0 "J2" H 2400 3100 50  0000 C CNN
F 1 "CONN3_3V3" V 2400 2650 50  0000 C CNN
F 2 "" H 2400 1450 50  0001 C CNN
F 3 "" H 2400 1450 50  0001 C CNN
	1    2400 2650
	1    0    0    -1  
$EndComp
$Comp
L CONN_02X08 J4
U 1 1 5A8A7C89
P 3600 1700
F 0 "J4" H 3600 2150 50  0000 C CNN
F 1 "CONN3_5V" V 3600 1700 50  0000 C CNN
F 2 "" H 3600 500 50  0001 C CNN
F 3 "" H 3600 500 50  0001 C CNN
	1    3600 1700
	0    -1   -1   0   
$EndComp
$Comp
L CONN_02X03 J5
U 1 1 5A8A7D12
P 5400 1700
F 0 "J5" H 5400 1900 50  0000 C CNN
F 1 "CONN_SERVO" H 5400 1500 50  0000 C CNN
F 2 "" H 5400 500 50  0001 C CNN
F 3 "" H 5400 500 50  0001 C CNN
	1    5400 1700
	0    -1   -1   0   
$EndComp
$Comp
L C C3
U 1 1 5A8A7D87
P 8700 1950
F 0 "C3" H 8725 2050 50  0000 L CNN
F 1 "100nF" H 8725 1850 50  0000 L CNN
F 2 "" H 8738 1800 50  0001 C CNN
F 3 "" H 8700 1950 50  0001 C CNN
	1    8700 1950
	1    0    0    -1  
$EndComp
$Comp
L SW_Push SW2
U 1 1 5A8A839F
P 8350 2700
F 0 "SW2" H 8400 2800 50  0000 L CNN
F 1 "SW_Push" H 8350 2640 50  0000 C CNN
F 2 "" H 8350 2900 50  0001 C CNN
F 3 "" H 8350 2900 50  0001 C CNN
	1    8350 2700
	1    0    0    -1  
$EndComp
$Comp
L SW_Push SW3
U 1 1 5A8A83EC
P 8350 3800
F 0 "SW3" H 8400 3900 50  0000 L CNN
F 1 "SW_Push" H 8350 3740 50  0000 C CNN
F 2 "" H 8350 4000 50  0001 C CNN
F 3 "" H 8350 4000 50  0001 C CNN
	1    8350 3800
	1    0    0    -1  
$EndComp
$Comp
L MP1584EN U2
U 1 1 5A8A8B4E
P 9300 2700
F 0 "U2" H 9100 2950 60  0000 C CNN
F 1 "MP1584EN" H 9300 3400 60  0000 C CNN
F 2 "" H 9300 2700 60  0000 C CNN
F 3 "" H 9300 2700 60  0000 C CNN
	1    9300 2700
	-1   0    0    1   
$EndComp
$Comp
L MP1584EN U3
U 1 1 5A8A8C63
P 9300 3600
F 0 "U3" H 9100 3850 60  0000 C CNN
F 1 "MP1584EN" H 9300 4300 60  0000 C CNN
F 2 "" H 9300 3600 60  0000 C CNN
F 3 "" H 9300 3600 60  0000 C CNN
	1    9300 3600
	-1   0    0    1   
$EndComp
$Comp
L CONN_01X02 J7
U 1 1 5A8A90DB
P 8300 3150
F 0 "J7" H 8300 3300 50  0000 C CNN
F 1 "CONN_5V" V 8400 3250 50  0000 C CNN
F 2 "" H 8300 3150 50  0001 C CNN
F 3 "" H 8300 3150 50  0001 C CNN
	1    8300 3150
	-1   0    0    1   
$EndComp
$Comp
L CP1 C2
U 1 1 5A8A9C7C
P 4300 1700
F 0 "C2" H 4325 1800 50  0000 L CNN
F 1 "100uF" H 4325 1600 50  0000 L CNN
F 2 "" H 4300 1700 50  0001 C CNN
F 3 "" H 4300 1700 50  0001 C CNN
	1    4300 1700
	-1   0    0    1   
$EndComp
$Comp
L CP1 C1
U 1 1 5A8A9CF7
P 2400 3300
F 0 "C1" H 2425 3400 50  0000 L CNN
F 1 "100uF" H 2425 3200 50  0000 L CNN
F 2 "" H 2400 3300 50  0001 C CNN
F 3 "" H 2400 3300 50  0001 C CNN
	1    2400 3300
	0    1    1    0   
$EndComp
Wire Wire Line
	9500 1800 9400 1800
Wire Wire Line
	8500 1800 9100 1800
Connection ~ 8950 1800
Wire Wire Line
	8500 1800 8500 2200
Connection ~ 8700 1800
Wire Wire Line
	8100 1500 8100 5200
Wire Wire Line
	10100 2200 10200 2200
Wire Wire Line
	10100 1350 10100 5200
Connection ~ 10100 2100
Wire Wire Line
	5400 2300 10200 2300
Wire Wire Line
	5400 1450 5400 2300
Connection ~ 5400 1950
Wire Wire Line
	8500 2200 10000 2200
Wire Wire Line
	4300 2400 8650 2400
Wire Wire Line
	4300 1850 4300 2400
Wire Wire Line
	2450 1950 4300 1950
Connection ~ 4300 1950
Connection ~ 3950 1950
Connection ~ 3850 1950
Connection ~ 3750 1950
Connection ~ 3650 1950
Connection ~ 3550 1950
Connection ~ 3450 1950
Connection ~ 3350 1950
Connection ~ 3250 1950
Wire Wire Line
	1750 1350 10100 1350
Connection ~ 5750 1350
Wire Wire Line
	5500 1350 5500 1950
Connection ~ 5500 1350
Connection ~ 5500 1450
Wire Wire Line
	4300 1550 4300 1350
Connection ~ 4300 1350
Wire Wire Line
	3950 1450 3950 1350
Connection ~ 3950 1350
Wire Wire Line
	3850 1450 3850 1350
Connection ~ 3850 1350
Wire Wire Line
	3750 1450 3750 1350
Connection ~ 3750 1350
Wire Wire Line
	3650 1450 3650 1350
Connection ~ 3650 1350
Wire Wire Line
	3550 1450 3550 1350
Connection ~ 3550 1350
Wire Wire Line
	3450 1450 3450 1350
Connection ~ 3450 1350
Wire Wire Line
	3350 1450 3350 1350
Connection ~ 3350 1350
Wire Wire Line
	3250 1450 3250 1350
Connection ~ 3250 1350
Connection ~ 8700 2100
Connection ~ 8950 2100
Wire Wire Line
	1750 1350 1750 2700
Wire Wire Line
	1750 2700 2150 2700
Wire Wire Line
	2150 2700 2150 3350
Wire Wire Line
	2650 3300 2550 3300
Connection ~ 2650 2300
Wire Wire Line
	2250 3300 2150 3300
Connection ~ 2150 3300
$Comp
L 74HC4067 U1
U 1 1 5A8B3191
P 3100 5500
F 0 "U1" H 3100 6150 60  0000 C CNN
F 1 "74HC4067" H 3100 4850 60  0000 C CNN
F 2 "" H 3600 4850 60  0001 C CNN
F 3 "" H 3600 4850 60  0001 C CNN
	1    3100 5500
	1    0    0    -1  
$EndComp
$Comp
L CONN_01X16 J1
U 1 1 5A8B3296
P 1700 5000
F 0 "J1" H 1700 5850 50  0000 C CNN
F 1 "CONN_SONAR" V 1800 5000 50  0000 C CNN
F 2 "" H 1700 5000 50  0001 C CNN
F 3 "" H 1700 5000 50  0001 C CNN
	1    1700 5000
	-1   0    0    1   
$EndComp
Wire Wire Line
	1900 5750 2700 5750
Wire Wire Line
	1900 5650 2700 5650
Wire Wire Line
	1900 5450 2700 5450
Wire Wire Line
	1900 5350 2700 5350
Wire Wire Line
	1900 5250 2700 5250
Wire Wire Line
	1900 5150 2700 5150
Wire Wire Line
	1900 5050 2700 5050
Wire Wire Line
	1900 5550 2700 5550
Wire Wire Line
	1900 4250 3950 4250
Wire Wire Line
	3950 4250 3950 5750
Wire Wire Line
	3950 5750 3500 5750
Wire Wire Line
	3500 5650 3900 5650
Wire Wire Line
	3900 5650 3900 4350
Wire Wire Line
	3900 4350 1900 4350
Wire Wire Line
	3500 5550 3850 5550
Wire Wire Line
	3850 5550 3850 4450
Wire Wire Line
	3850 4450 1900 4450
Wire Wire Line
	3500 5450 3800 5450
Wire Wire Line
	3800 5450 3800 4550
Wire Wire Line
	3800 4550 1900 4550
Wire Wire Line
	3500 5350 3750 5350
Wire Wire Line
	3750 5350 3750 4650
Wire Wire Line
	3750 4650 1900 4650
Wire Wire Line
	3500 5250 3700 5250
Wire Wire Line
	3700 5250 3700 4750
Wire Wire Line
	3700 4750 1900 4750
Wire Wire Line
	3500 5150 3650 5150
Wire Wire Line
	3650 5150 3650 4850
Wire Wire Line
	3650 4850 1900 4850
Wire Wire Line
	2700 4950 2700 4800
Wire Wire Line
	2700 4800 4050 4800
Wire Wire Line
	4050 4800 4050 6850
$Comp
L CONN_01X11 J3
U 1 1 5A8B48C6
P 3550 7050
F 0 "J3" H 3550 7650 50  0000 C CNN
F 1 "CONN_UPSTAIRS" V 3650 7050 50  0000 C CNN
F 2 "" H 3550 7050 50  0001 C CNN
F 3 "" H 3550 7050 50  0001 C CNN
	1    3550 7050
	0    1    1    0   
$EndComp
Wire Wire Line
	3500 6050 3700 6050
Wire Wire Line
	3450 6850 3450 6200
Wire Wire Line
	3450 6200 3600 6200
Wire Wire Line
	3600 6200 3600 5950
Wire Wire Line
	3600 5950 3500 5950
Wire Wire Line
	3350 6850 3350 6300
Wire Wire Line
	3350 6300 2600 6300
Wire Wire Line
	2600 6300 2600 5950
Wire Wire Line
	2600 5950 2700 5950
Wire Wire Line
	3250 6850 3250 6350
Wire Wire Line
	3250 6350 2550 6350
Wire Wire Line
	2550 6350 2550 5850
Wire Wire Line
	2550 5850 2700 5850
Wire Wire Line
	2150 3300 2150 6050
Wire Wire Line
	2150 6050 2700 6050
Wire Wire Line
	3500 3600 3500 4950
Connection ~ 2650 3300
Wire Wire Line
	5300 1950 4700 1950
Wire Wire Line
	4700 1950 4700 6650
Wire Wire Line
	4700 6650 3150 6650
Wire Wire Line
	3150 6650 3150 6850
Wire Wire Line
	5300 1450 4600 1450
Wire Wire Line
	4600 1450 4600 6550
Wire Wire Line
	4600 6550 3050 6550
Wire Wire Line
	3050 6550 3050 6850
$Comp
L Voltmeter_DC MES1
U 1 1 5A8B50B0
P 9100 5200
F 0 "MES1" H 8970 5240 50  0000 R CNN
F 1 "Voltmeter_DC" H 8970 5170 50  0000 R CNN
F 2 "" V 9100 5300 50  0001 C CNN
F 3 "" V 9100 5300 50  0001 C CNN
	1    9100 5200
	0    -1   -1   0   
$EndComp
$Comp
L SW_Push SW1
U 1 1 5A8B541B
P 8300 1500
F 0 "SW1" H 8350 1600 50  0000 L CNN
F 1 "SW_Push" H 8300 1440 50  0000 C CNN
F 2 "" H 8300 1700 50  0001 C CNN
F 3 "" H 8300 1700 50  0001 C CNN
	1    8300 1500
	1    0    0    -1  
$EndComp
Connection ~ 8100 3800
Connection ~ 8100 2700
Wire Wire Line
	8100 5200 8900 5200
Wire Wire Line
	10100 5200 9300 5200
Text Notes 1700 6000 0    60   ~ 0
16Ch analog MUX
Wire Wire Line
	2650 3600 8650 3600
Wire Wire Line
	2650 2300 2650 3600
Connection ~ 3500 3600
Connection ~ 2150 2300
Connection ~ 2150 2400
Connection ~ 2150 2500
Connection ~ 2650 2400
Connection ~ 2650 2500
Connection ~ 2650 2600
Connection ~ 2650 2700
Connection ~ 2650 2800
Connection ~ 2650 2900
Connection ~ 2650 3000
Connection ~ 2150 3000
Connection ~ 2150 2900
Connection ~ 2150 2800
Connection ~ 2150 2700
Connection ~ 5400 1450
Wire Wire Line
	3550 6850 3550 6300
Wire Wire Line
	3550 6300 3700 6300
Wire Wire Line
	3700 6300 3700 6050
Text Notes 8750 2950 0    60   ~ 0
5V regulator
Text Notes 8750 3850 0    60   ~ 0
3.3V regulator
Text Notes 9250 2050 0    60   ~ 0
LC noise filter
$Bitmap
Pos 10300 6700
Scale 1,000000
Data
89 50 4E 47 0D 0A 1A 0A 00 00 00 0D 49 48 44 52 00 00 02 20 00 00 00 45 08 02 00 00 00 FC 4D CA 
8B 00 00 00 03 73 42 49 54 08 08 08 DB E1 4F E0 00 00 0A DC 49 44 41 54 78 9C ED DD 4F 68 1B D9 
1D 07 F0 5F 12 27 7A F9 B3 92 AC 6C E2 A1 5B DA D9 76 29 93 52 A8 5A 02 AB 42 21 13 5A 88 16 0A 
9E C0 42 75 74 4E 71 6E EE 69 BD 3D F9 B6 BE 45 85 1E 94 93 BD BD AC 03 05 AB BD 54 B7 08 5A A8 
7B 8A 02 29 55 61 E9 4E A1 25 13 76 1B CB 22 75 9E 4B 62 F7 A0 58 9A D1 9F F7 E6 DF 1B 49 D1 F7 
73 C9 58 7E FE BD 3F BF 37 F9 59 63 69 74 E2 E8 E8 88 00 00 00 E2 76 72 DC 03 00 00 80 37 13 0A 
0C 00 00 28 81 02 03 00 00 4A A0 C0 00 00 80 12 28 30 00 00 A0 04 0A 0C 00 00 28 81 02 03 00 00 
4A A0 C0 00 00 80 12 28 30 00 00 A0 C6 11 8C D5 17 77 DF 1F 9A 97 F9 39 49 E2 2E 0D 6D B0 70 FB 
01 BA 88 BB 8B 9C FA 41 5E DB 78 22 DC 26 DB 8B 29 BF 11 94 2D 94 7C 0C 17 A7 20 DD 01 56 32 AC 
99 4B 96 80 A0 13 BB BE 59 6F 72 EE 7A E4 79 7B 37 95 9E 3F 3D FA 47 06 1B 30 DD 2C 15 0D 26 99 
8A A7 D3 5A 93 0B 1A 84 08 98 FC 2C 02 CA 5C FB A8 B2 9C F7 3C F4 E2 59 7B 2E 97 16 0C F2 C5 B3 
F6 F9 5C FA D0 FD 50 AB BA 7A A7 8E 2E 54 74 A1 7A 90 4C 2B 64 47 7F 97 88 0A AB 5B 9F 95 84 E7 
85 27 82 92 85 92 8E 61 2A D2 1D 70 25 C3 98 C9 64 8D 20 28 30 8D CA F2 AD FB 07 A9 54 AF 12 9E 
9A 3F F9 6A F7 70 F4 4F 0C 34 38 38 38 B8 B1 61 05 F9 AF B9 51 59 59 A9 BA D6 E5 E0 E0 80 C8 3D 
06 66 56 02 06 1C C3 2C 02 62 46 B1 54 32 89 BB EB 20 27 72 F5 C7 18 23 F2 36 E8 0B C1 18 D9 4E 
99 EA A1 BB 90 8F 72 66 BB 88 7B 90 C3 B2 C9 C4 93 D0 F2 45 CB F5 7F 90 2C 82 92 1D 25 1F C3 34 
A4 3B E0 4A 86 11 7B B2 A4 26 20 59 23 48 FE 06 73 63 C3 E1 3D FF 7D B2 CF 85 FA 1A 6C FD 5C F6 
34 6D 80 B5 D5 EA 8F E0 1D 43 AB B6 14 F8 F7 8B C4 67 11 86 5D 36 CF BA 7C EB 2D D7 17 FA F2 0E 
51 73 3D EF 6E F0 0D 6F 83 7A C4 2E 86 41 17 1D EF C4 3B C8 61 D9 2C 6E 3A C2 78 D5 52 36 70 84 
B8 77 94 7C 0C EF 4D 41 BA C3 AC 64 40 71 27 4B CD 34 55 24 6B 90 EC 3A 1C 24 29 73 E3 93 CD 65 
83 88 68 BF BD 37 97 CE 9C 21 22 67 6B A5 F7 B4 74 61 F1 6E 65 49 7F DD 20 97 CE 70 22 72 AA AB 
77 6A 91 BA 18 01 5D 74 BB B8 90 CE 1C C6 32 C8 11 D9 64 5A 5E 13 C6 2A AC 55 B7 97 38 05 8E 10 
E7 8E 92 8E 61 BF BD 77 2E 9D 11 CC 62 12 D2 1D 76 25 03 88 33 59 23 4C 70 B2 BC 50 60 26 09 D3 
0B 96 65 7A 1F B3 ED B5 DE D3 52 A6 17 2C AB D0 DF 60 9D FC A7 7F 58 17 52 E8 22 BE 08 92 6C 8E 
D0 BB E2 11 2C 42 9C 3B 2A EC 18 86 19 5F BA E3 9C C5 08 71 26 4B 6A E2 92 E5 85 97 29 03 00 80 
12 28 30 00 00 A0 04 0A 0C 00 00 28 81 02 03 00 00 4A A0 C0 00 00 80 12 28 30 00 00 A0 84 E0 65 
CA 59 CD F8 3E 8B 74 D3 04 44 90 63 7A 61 D1 34 34 D7 C1 40 03 73 B1 98 CF 76 0E CC 21 AF 9F F7 
11 41 D2 20 8E 41 CE 44 17 71 34 90 64 D3 C7 2C A2 EF 07 E5 11 7C CC 62 12 D2 1D 75 16 3E C6 10 
75 A9 7D 74 31 FE 64 09 08 0A 0C 6F D9 76 4B 74 37 1B 29 44 F0 11 DD 69 D4 77 A8 45 C4 8E 0F 86 
34 A8 53 8B 48 6B 35 EB 75 E6 10 E9 21 22 08 1B D8 15 33 BF 9E AF D9 65 ED F8 A0 EF 95 F2 9A 55 
AE 5A 44 44 D4 3D 08 D8 85 54 02 5D 44 5F A8 78 1A 08 B3 E9 6B 16 D1 F7 83 E2 08 7E A6 61 3B 1A 
77 1F 04 1C 83 8F 1E 64 11 B8 63 DB 0E 27 CA 52 CB B6 9D 10 5D F8 19 84 B8 8B 84 CE 4D C5 C9 12 
10 15 18 CE F7 46 DF AA C8 D7 B8 10 C1 4F F8 BD CE 2D 82 BA 07 13 D8 20 FA 2C A2 4B 60 90 93 D0 
60 36 66 C1 1D FB 51 33 DB 22 CA 1E 1F C4 DE 85 34 82 7C 0C 91 C5 30 CD 09 38 37 A3 2C 14 FE 06 
03 00 00 4A A0 C0 00 00 80 12 28 30 00 00 A0 04 0A 0C 00 00 28 81 02 03 00 00 4A A0 C0 00 00 80 
12 F8 3C 98 99 C5 1D DB 69 71 4E 44 8E AD EE 55 D8 6A F0 96 DD 6C 36 89 88 58 56 D3 35 D1 DB 60 
A7 79 9A 53 21 40 2E 26 1B 0F F6 19 C2 2A 29 DB B4 89 27 0B 05 66 66 D5 56 8C 9B F7 0F 8E BF 5A 
88 E9 C3 96 92 B1 77 FF D6 95 FB 9D C3 F9 39 DA 7D 29 6A 7B 69 8E BE EC 36 98 AE 69 4E 85 F0 B9 
C8 8B 9A 26 EC E9 BD EB 67 EF 75 0E 73 73 F4 6C 70 16 0B B7 1F 38 15 D3 FB 98 5D 2E BC FB 8B BF 
0C 06 F3 44 08 33 4D 65 E7 66 E2 C9 92 14 98 46 B9 64 55 BB 65 FD D5 65 E3 FA 0F F5 73 A3 9B FF 
FB E1 EF 1F 3D 3D D3 BD EC E6 EC 1C 90 70 5C 76 7D B3 DE F4 BC F5 67 48 04 0A 36 06 A6 9B A5 A2 
31 29 BF 8A 4C 30 73 7D E7 E1 6A F7 2B A6 19 44 11 3F 8B 3C 19 FA D2 E6 43 B3 BB 67 BE 6A FE F5 
2B 3A 25 68 FE 8A D2 EF 19 5F 4B BD FE 6A 7A A6 39 15 02 E6 E2 C5 B3 F6 F9 5C FA B0 F3 05 CB 1A 
79 0A F3 16 FD D8 69 D6 FA B6 E6 1C 4F C3 33 C8 8E 56 75 B5 F7 A9 C3 7D 32 D7 3E AA 2C 7B FF 97 
8B 3E 4D 25 E7 E6 58 92 25 29 30 9C C8 F5 DE CF DD 3F FE FA 97 BF 11 15 BD 39 FD BB 05 FD 72 37 
A6 F4 C9 5D A3 B2 7C EB FE 41 2A 95 EA 3E 32 24 42 C0 31 30 B3 62 A1 C0 F8 C0 18 63 74 BC B0 53 
B5 5E AE 71 D3 D7 7F F0 93 1F 7F D3 DF 25 32 9A B2 69 4E 05 41 2E 18 63 E4 39 77 07 71 AE E8 B6 
0F BE 71 DE E2 A4 15 8A C3 6E B2 42 44 9D 59 D8 4E B9 F7 A9 C3 FD DF 37 8A A5 92 19 F3 34 15 9D 
9B 63 48 96 A4 C0 14 56 B6 6A 4B A1 2F D4 55 4B EC A6 B4 E8 DD D8 70 46 77 51 2D B1 9B AD 48 63 
80 51 6A 2B 79 F7 D3 F0 DB 0F 9C 8A 3E C6 E1 F8 66 6F 96 AE B8 AE 4B 04 7C A6 3F 35 D3 9C 0A A2 
5C 2C DC FE B3 53 C9 AE E7 AF 7C FC F7 6E 03 4F 2E BA C6 78 DD F2 E9 A7 1F CC 7F DA F7 98 F7 02 
97 AF 0D 63 97 4D F7 B5 B2 11 17 D9 FC 4F 53 C9 B9 39 96 64 E1 6F 30 33 AB 58 6E FC 6D 8D 88 88 
EC 4A E9 83 AD F1 0E 26 A0 CC E2 46 7D BD C0 88 E8 CB 7F 3C FE CF FF 44 BB F8 E4 E9 B7 BE F3 ED 
77 88 A6 71 9A 53 61 58 2E 9C AD 95 DE 35 A5 85 C5 BB 95 25 9D 88 68 BF BD 97 4B 67 FA 7F 0B EE 
5C 7E 49 9E 66 95 FF A0 3B 03 BF 93 EF B7 F7 2E A4 33 87 44 E4 54 57 EF D4 7C 87 CB DC F8 64 73 
D9 F0 46 70 0B 32 4D 65 E7 66 E2 C9 42 81 99 59 4C 33 5E DF 79 9B E9 D3 76 E9 88 69 7A DE 30 88 
88 8C CE 3F BE 7E 68 EA A6 39 15 86 E5 C2 B6 D7 7A D7 94 98 5E B0 AC 09 7C 71 05 D3 0B 45 5D D4 
C0 B6 D7 C9 7F 81 61 7A C1 B2 CC 88 63 3A 8E A5 EA DC 4C 3C 59 78 1F 0C 00 00 28 81 02 03 00 00 
4A A0 C0 00 00 80 12 28 30 00 00 A0 04 0A 0C 00 00 28 81 02 03 00 00 4A 9C 5A 5B 5B 1B F5 BD 97 
5F CD 19 C5 62 5E 0B FF 52 66 59 04 E7 4F BF 6D CC 15 97 AC D1 6F BC 57 3F 86 24 22 88 F0 97 FC 
42 BE F8 53 23 DB 3D 98 C0 06 D1 67 11 5D 02 83 9C 84 06 6F C4 2C B8 D3 FC FC E5 D5 9F 59 79 F6 
AF C7 F6 CB AB 1F 5A F9 31 EC A8 C8 11 B8 F3 F8 F3 E7 DF B3 3E BC 7A E1 F8 E0 ED 80 0D 62 18 A4 
FA 75 88 21 59 A3 09 9E C1 70 C7 B1 9D 48 B7 0A 92 46 C8 EA 86 6E 64 05 2F F4 4E 60 0C 09 44 10 
46 B7 EB F5 86 DD 22 6A 35 6B F5 C6 90 5B A7 66 CD E5 F2 BA A5 BB 0E 82 46 E0 4E BD BE D3 6C B9 
0E 82 76 E1 6C 95 F2 E6 7A C3 75 10 B4 0B 29 79 17 B2 69 4A 45 5F A8 04 1A C8 67 21 ED 22 81 1D 
25 CD 05 77 6C DB E1 44 8C 5A 76 A8 B3 27 81 85 F2 13 C2 76 5A DC 7D 10 B4 41 E4 41 C6 70 6E AA 
4F 96 80 A0 C0 D8 3B D5 DF D5 23 DD 2C 5A 1A 21 7A 83 E8 63 48 20 82 08 6F 35 1F 35 9A BC 73 D0 
B4 C3 9C 48 B2 08 DC B1 3B 8F 77 0F 02 77 21 8B 90 44 17 13 B0 50 09 34 90 CF 62 12 16 6A 02 B6 
DC 24 44 98 8E 41 AA 4F 96 00 FE 06 03 00 00 4A A0 C0 00 00 80 12 28 30 00 00 A0 04 0A 0C 00 00 
28 81 02 03 00 00 4A A0 C0 00 00 80 12 28 30 63 D6 FF 21 A4 C1 5F 0E 1D 38 42 02 9F 51 AB A0 8B 
31 2C 94 3C E2 04 44 18 0C A9 7E A1 C6 B0 E5 C6 FB C1 CA 1D 33 72 E2 C4 3A 06 14 98 B1 A8 5A EC 
44 C7 95 8F 1F F5 1E FE E7 AF 7E 74 F6 F5 E3 E6 A6 A3 24 C2 D3 7B D7 8F 1B E4 4E 9F 10 BB 7C DC 
C0 FD 71 B0 72 71 76 91 C4 42 45 9F E6 C5 D9 58 A8 B7 4F 87 EA 22 C8 34 C7 B6 69 A5 A2 A7 3B 48 
17 63 DB 0F D1 93 E5 E5 BE FD 89 5D DF AC 35 7B E5 6B A7 79 40 BC B6 59 E1 DD 77 DA 33 DD 2C 15 
47 DF D6 25 5C 04 DB D3 E0 79 7B 37 95 9E 3F ED 8E A0 49 27 21 23 EC 62 90 92 31 78 15 56 B7 3E 
2B 1D 2F 14 CB 1A 06 11 B3 CA DB 7A F7 CD C0 4C 2B 88 EF D7 10 26 82 66 AD 6F 6B DD CF 88 7D F1 
AC 3D 97 4B 0B D6 E1 C5 B3 F6 F9 5C FA B0 DB 45 9E 48 FA 26 AC B8 BB 48 60 A1 62 99 E6 8C 2C 54 
6F 90 6A B6 DC 78 36 AD 54 F4 74 07 EF 62 0C FB 21 7A B2 06 B9 0B 4C A3 B2 B2 52 75 3F 3F 4A A5 
A8 BA BA 52 ED 45 34 2B 96 B0 C0 04 8D C0 18 4B D9 9E 06 A7 E6 4F BE DA 75 7F 9A 75 2A 13 ED 33 
43 7D 74 D1 2F F6 31 0C D2 F2 45 2B EF 7E 80 73 D2 4D CF 07 B8 32 71 97 41 23 70 DE E2 A4 15 8A 
96 EB 21 A2 60 D3 E2 9C F7 3F DF F6 7E 3B FE 2E 12 59 28 C9 18 06 BE 3D 30 CD E8 11 A6 62 A1 FA 
07 A9 62 CB 25 BD 69 7D FC 7C D4 74 87 E9 22 F1 FD 10 3D 59 23 1C C1 18 6C 2F A6 24 79 B9 B6 F1 
24 AE 08 5F DC 7D 7F 68 83 79 D9 DD 3B 2F 0D 6D B0 70 FB C1 C0 68 94 75 91 C4 42 45 9F 66 6E 36 
16 EA A2 6C 90 D1 B7 5C 92 9B 56 2A 7A BA 43 77 91 E4 7E 88 9E 2C 81 13 47 47 47 92 30 10 3F A7 
51 DB 11 DE DE 8C 69 F9 62 41 8F 27 02 B7 77 EA 0D 67 A0 ED 7E 7B 6F 2E 9D 39 33 3A C2 7E 7B 2F 
97 CE F4 FF 1C CB 1A 05 73 E0 86 AC AA BA 48 60 A1 62 99 E6 85 74 A6 FF 49 F1 9B B8 50 E7 D2 19 
5F 5D 84 9D 66 A2 9B 56 2A 7A BA 23 74 91 DC 7E 88 9E 2C 01 14 18 00 00 50 02 AF 22 03 00 00 25 
50 60 00 00 40 09 14 18 00 00 50 02 05 06 00 00 94 40 81 01 00 00 25 50 60 00 00 40 09 14 18 00 
00 50 02 05 06 00 00 94 40 81 01 00 00 25 FE 0F E8 25 0E 50 42 27 E8 76 00 00 00 00 49 45 4E 44 
AE 42 60 82 
EndData
$EndBitmap
Wire Wire Line
	2150 1350 2150 1800
Connection ~ 2150 1350
Wire Wire Line
	2150 2150 2150 2600
Connection ~ 5500 1950
Connection ~ 10100 2200
Connection ~ 10100 3250
Connection ~ 10100 4150
Wire Wire Line
	9800 1800 10000 1800
$Comp
L GND #PWR?
U 1 1 5A9086CE
P 9950 1350
F 0 "#PWR?" H 9950 1100 50  0001 C CNN
F 1 "GND" H 9950 1200 50  0000 C CNN
F 2 "" H 9950 1350 50  0001 C CNN
F 3 "" H 9950 1350 50  0001 C CNN
	1    9950 1350
	1    0    0    -1  
$EndComp
Text GLabel 10600 2100 2    60   Input ~ 0
GND
Text GLabel 10600 2200 2    60   Input ~ 0
GND
Text GLabel 10600 2000 2    60   Input ~ 0
12V
Text GLabel 10600 2300 2    60   Input ~ 0
5V
Text GLabel 4300 2150 0    60   Input ~ 0
5V
Text GLabel 3500 3900 0    60   Input ~ 0
3V3
Wire Wire Line
	5750 2250 5750 2300
Connection ~ 5750 2300
Wire Wire Line
	5750 1950 5750 1350
Wire Wire Line
	2300 5000 3550 5000
Wire Wire Line
	2300 5000 2300 4950
Wire Wire Line
	2300 4950 1900 4950
Wire Wire Line
	3550 5000 3550 5050
Wire Wire Line
	3550 5050 3500 5050
$Comp
L SW_SPDT SW?
U 1 1 5A917C7B
P 9900 3750
F 0 "SW?" H 9850 3600 50  0000 C CNN
F 1 "SW_SPDT" H 9900 3950 50  0000 C CNN
F 2 "" H 9900 3750 50  0001 C CNN
F 3 "" H 9900 3750 50  0001 C CNN
	1    9900 3750
	0    -1   -1   0   
$EndComp
$Comp
L CONN_01X02 J?
U 1 1 5A917F74
P 7450 3150
F 0 "J?" H 7450 3300 50  0000 C CNN
F 1 "CONN2_5V" V 7550 3250 50  0000 C CNN
F 2 "" H 7450 3150 50  0001 C CNN
F 3 "" H 7450 3150 50  0001 C CNN
	1    7450 3150
	-1   0    0    1   
$EndComp
$Comp
L CONN_01X02 J?
U 1 1 5A91800F
P 7450 4050
F 0 "J?" H 7450 4200 50  0000 C CNN
F 1 "CONN2_3V3" V 7550 4200 50  0000 C CNN
F 2 "" H 7450 4050 50  0001 C CNN
F 3 "" H 7450 4050 50  0001 C CNN
	1    7450 4050
	-1   0    0    1   
$EndComp
Wire Wire Line
	9750 4000 9900 4000
Wire Wire Line
	10100 3250 9750 3250
Wire Wire Line
	8150 2700 8100 2700
Wire Wire Line
	8500 3100 8750 3100
Wire Wire Line
	7650 3200 8750 3200
Wire Wire Line
	8750 3200 8750 3250
$Comp
L SW_SPST SW?
U 1 1 5A918A59
P 7850 3100
F 0 "SW?" H 7850 3225 50  0000 C CNN
F 1 "SW_SPST" H 7800 3300 50  0000 C CNN
F 2 "" H 7850 3100 50  0001 C CNN
F 3 "" H 7850 3100 50  0001 C CNN
	1    7850 3100
	1    0    0    -1  
$EndComp
Wire Wire Line
	8050 3100 8050 2950
Wire Wire Line
	8050 2950 8650 2950
Wire Wire Line
	8650 2400 8650 3500
Connection ~ 8650 3100
Wire Wire Line
	8550 2700 8650 2700
Connection ~ 8650 2950
Connection ~ 8500 3200
Wire Wire Line
	8100 3800 8150 3800
Wire Wire Line
	7650 4000 8750 4000
Wire Wire Line
	7650 4100 8750 4100
Connection ~ 8500 4000
Wire Wire Line
	8750 4100 8750 4150
Connection ~ 8500 4100
Wire Wire Line
	8550 3800 8650 3800
Wire Wire Line
	8650 3600 8650 4000
Connection ~ 8650 4000
Connection ~ 8650 3800
Wire Wire Line
	10000 2200 10000 3550
Wire Wire Line
	9750 3100 10000 3100
Connection ~ 10000 3100
Wire Wire Line
	8650 3500 9800 3500
Wire Wire Line
	9800 3500 9800 3550
Wire Wire Line
	9900 4000 9900 3950
Wire Wire Line
	10100 4150 9750 4150
Connection ~ 8650 2700
Wire Wire Line
	8400 2100 10200 2100
Wire Wire Line
	8500 1500 8500 1700
Wire Wire Line
	7900 1800 8400 1800
Wire Wire Line
	8400 1800 8400 2100
Wire Wire Line
	8500 1700 7900 1700
Wire Wire Line
	8500 1600 10000 1600
Connection ~ 8500 1600
Wire Wire Line
	10000 1600 10000 2000
Wire Wire Line
	10000 2000 10200 2000
Connection ~ 10000 1800
$EndSCHEMATC
