EESchema Schematic File Version 2
LIBS:power
LIBS:device
LIBS:transistors
LIBS:conn
LIBS:linear
LIBS:regul
LIBS:74xx
LIBS:cmos4000
LIBS:adc-dac
LIBS:memory
LIBS:xilinx
LIBS:microcontrollers
LIBS:dsp
LIBS:microchip
LIBS:analog_switches
LIBS:motorola
LIBS:texas
LIBS:intel
LIBS:audio
LIBS:interface
LIBS:digital-audio
LIBS:philips
LIBS:display
LIBS:cypress
LIBS:siliconi
LIBS:opto
LIBS:atmel
LIBS:contrib
LIBS:valves
LIBS:74xgxx
LIBS:dc-dc
LIBS:maxim
LIBS:mylib
LIBS:switches
LIBS:esp-deck-cache
EELAYER 25 0
EELAYER END
$Descr A4 11693 8268
encoding utf-8
Sheet 1 1
Title "ESP32 deck"
Date "2018-02-19"
Rev ""
Comp ""
Comment1 ""
Comment2 ""
Comment3 ""
Comment4 ""
$EndDescr
$Comp
L WROOM-32 U2
U 1 1 5A87E0E5
P 5150 3750
F 0 "U2" H 5850 4750 60  0000 C CNN
F 1 "WROOM-32" H 6150 4600 60  0000 C CNN
F 2 "" H 5150 3750 60  0001 C CNN
F 3 "" H 5150 3750 60  0001 C CNN
	1    5150 3750
	1    0    0    -1  
$EndComp
$Comp
L CP1 C1
U 1 1 5A87E3F8
P 4850 3050
F 0 "C1" H 4875 3150 50  0000 L CNN
F 1 "560uF" H 4875 2950 50  0000 L CNN
F 2 "" H 4850 3050 50  0001 C CNN
F 3 "" H 4850 3050 50  0001 C CNN
	1    4850 3050
	0    1    1    0   
$EndComp
$Comp
L R R1
U 1 1 5A87E499
P 5250 2850
F 0 "R1" V 5330 2850 50  0000 C CNN
F 1 "20k" V 5250 2850 50  0000 C CNN
F 2 "" V 5180 2850 50  0001 C CNN
F 3 "" H 5250 2850 50  0001 C CNN
	1    5250 2850
	0    1    1    0   
$EndComp
$Comp
L SW_Push SW1
U 1 1 5A87E637
P 4400 3150
F 0 "SW1" H 4450 3250 50  0000 L CNN
F 1 "RESET" H 4400 3090 50  0000 C CNN
F 2 "" H 4400 3350 50  0001 C CNN
F 3 "" H 4400 3350 50  0001 C CNN
	1    4400 3150
	1    0    0    -1  
$EndComp
$Comp
L SW_Push SW2
U 1 1 5A87E6F9
P 4400 3600
F 0 "SW2" H 4450 3700 50  0000 L CNN
F 1 "BOOT" H 4400 3500 50  0000 C CNN
F 2 "" H 4400 3800 50  0001 C CNN
F 3 "" H 4400 3800 50  0001 C CNN
	1    4400 3600
	1    0    0    -1  
$EndComp
NoConn ~ 5850 4050
NoConn ~ 5950 4050
NoConn ~ 6050 4050
NoConn ~ 6150 4050
NoConn ~ 6250 4050
NoConn ~ 6350 4050
$Comp
L CONN_01X04 J1
U 1 1 5A87E9DF
P 4950 2450
F 0 "J1" H 4950 2700 50  0000 C CNN
F 1 "CON_MAIN" V 4950 2050 50  0000 C CNN
F 2 "" H 4950 2450 50  0001 C CNN
F 3 "" H 4950 2450 50  0001 C CNN
	1    4950 2450
	0    -1   -1   0   
$EndComp
$Comp
L LED D1
U 1 1 5A87ECC9
P 5450 4250
F 0 "D1" H 5450 4350 50  0000 C CNN
F 1 "LED" H 5450 4150 50  0000 C CNN
F 2 "" H 5450 4250 50  0001 C CNN
F 3 "" H 5450 4250 50  0001 C CNN
	1    5450 4250
	-1   0    0    1   
$EndComp
$Comp
L R R2
U 1 1 5A87EE21
P 5700 3100
F 0 "R2" V 5780 3100 50  0000 C CNN
F 1 "3k3" H 5700 3100 50  0000 C CNN
F 2 "" V 5630 3100 50  0001 C CNN
F 3 "" H 5700 3100 50  0001 C CNN
	1    5700 3100
	1    0    0    -1  
$EndComp
$Comp
L CONN_01X03 J3
U 1 1 5A87EFD5
P 6000 5300
F 0 "J3" H 6000 5500 50  0000 C CNN
F 1 "CONN_LRF" V 6000 4950 50  0000 C CNN
F 2 "" H 6000 5300 50  0001 C CNN
F 3 "" H 6000 5300 50  0001 C CNN
	1    6000 5300
	0    1    1    0   
$EndComp
$Comp
L CONN_01X03 J2
U 1 1 5A87F1A7
P 5150 5300
F 0 "J2" H 5150 5500 50  0000 C CNN
F 1 "CONN_ODO" V 5150 4900 50  0000 C CNN
F 2 "" H 5150 5300 50  0001 C CNN
F 3 "" H 5150 5300 50  0001 C CNN
	1    5150 5300
	0    1    1    0   
$EndComp
Text GLabel 7200 3050 2    60   Input ~ 0
MUX_SIG
Text GLabel 7200 3150 2    60   Input ~ 0
SCL
Text GLabel 7200 3450 2    60   Input ~ 0
SDA
Text GLabel 7200 3550 2    60   Input ~ 0
MUX_S3
Text GLabel 7200 3650 2    60   Input ~ 0
MUX_S2
Text GLabel 7200 3750 2    60   Input ~ 0
MUX_S1
Text GLabel 7200 3850 2    60   Input ~ 0
MUX_S0
Text GLabel 7200 3950 2    60   Input ~ 0
SERVO_V
Text GLabel 7200 4050 2    60   Input ~ 0
SERVO_H
$Comp
L OLED-SSD1306 U1
U 1 1 5A8800CE
P 3500 3300
F 0 "U1" H 3500 3300 60  0000 C CNN
F 1 "OLED-SSD1306" H 4550 3450 60  0000 C CNN
F 2 "" H 3500 3300 60  0001 C CNN
F 3 "" H 3500 3300 60  0001 C CNN
	1    3500 3300
	-1   0    0    1   
$EndComp
Text GLabel 4800 2400 1    60   Input ~ 0
GND
Text GLabel 5100 2400 1    60   Input ~ 0
3V3
Text GLabel 4900 2400 1    60   Input ~ 0
RX0
Text GLabel 5000 2400 1    60   Input ~ 0
TX0
$Comp
L CONN_01X02 J4
U 1 1 5A89734F
P 6500 4250
F 0 "J4" H 6500 4400 50  0000 C CNN
F 1 "CONN_SER1" V 6600 4250 50  0000 C CNN
F 2 "" H 6500 4250 50  0001 C CNN
F 3 "" H 6500 4250 50  0001 C CNN
	1    6500 4250
	0    1    1    0   
$EndComp
Text GLabel 6550 4400 3    60   Input ~ 0
TX1
Text GLabel 6450 4400 3    60   Input ~ 0
RX1
Text GLabel 5050 5350 3    60   Input ~ 0
SCLK
Text GLabel 5150 5350 3    60   Input ~ 0
ADR0
Text GLabel 5250 5350 3    60   Input ~ 0
SDIO
Text GLabel 5900 5350 3    60   Input ~ 0
XSHUT2
Text GLabel 6000 5350 3    60   Input ~ 0
SCL
Text GLabel 6100 5350 3    60   Input ~ 0
SDA
$Comp
L CONN_01X11 J5
U 1 1 5A897AB5
P 7150 3550
F 0 "J5" H 7150 2950 50  0000 C CNN
F 1 "CONN_DOWNSTAIRS" V 7150 4500 50  0000 C CNN
F 2 "" H 7150 3550 50  0001 C CNN
F 3 "" H 7150 3550 50  0001 C CNN
	1    7150 3550
	1    0    0    -1  
$EndComp
Text GLabel 4900 2050 1    60   Input ~ 0
TXD/14
Text GLabel 5000 2050 1    60   Input ~ 0
RXD/15
Text Notes 5100 1800 0    60   ~ 0
RPi
$Comp
L CONN_01X04 J6
U 1 1 5A8FBA09
P 4350 5600
F 0 "J6" H 4350 5850 50  0000 C CNN
F 1 "CONN_ANALOG" V 4350 5100 50  0000 C CNN
F 2 "" H 4350 5600 50  0001 C CNN
F 3 "" H 4350 5600 50  0001 C CNN
	1    4350 5600
	0    1    1    0   
$EndComp
$Comp
L R R4
U 1 1 5A8FBB3E
P 4500 5050
F 0 "R4" V 4450 4900 50  0000 C CNN
F 1 "100k" V 4500 5050 50  0000 C CNN
F 2 "" V 4430 5050 50  0001 C CNN
F 3 "" H 4500 5050 50  0001 C CNN
	1    4500 5050
	1    0    0    -1  
$EndComp
$Comp
L R R3
U 1 1 5A8FBBE9
P 4000 4800
F 0 "R3" V 3900 4650 50  0000 C CNN
F 1 "68k" V 4000 4800 50  0000 C CNN
F 2 "" V 3930 4800 50  0001 C CNN
F 3 "" H 4000 4800 50  0001 C CNN
	1    4000 4800
	0    1    1    0   
$EndComp
Wire Wire Line
	4700 3050 4700 2950
Wire Wire Line
	4600 3150 5400 3150
Connection ~ 4700 2950
Wire Wire Line
	4800 2950 4800 2650
Connection ~ 4800 2950
Connection ~ 5300 3050
Wire Wire Line
	5250 4150 5250 5100
Wire Wire Line
	5300 4050 5150 4050
Wire Wire Line
	5150 4050 5150 5100
Wire Wire Line
	5300 3950 5050 3950
Wire Wire Line
	5050 3950 5050 5100
Wire Wire Line
	4600 3600 6350 3600
Wire Wire Line
	6350 3600 6950 4150
Wire Wire Line
	6950 3250 6300 3250
Wire Wire Line
	6300 3250 6050 2700
Wire Wire Line
	6050 2700 5000 2700
Wire Wire Line
	5000 2700 5000 2650
Wire Wire Line
	6950 3350 6250 3350
Wire Wire Line
	6250 3350 6000 2750
Wire Wire Line
	6000 2750 4900 2750
Wire Wire Line
	4900 2750 4900 2650
Wire Wire Line
	6950 3150 6000 3150
Wire Wire Line
	6000 3150 6000 5100
Wire Wire Line
	5400 3150 5400 2850
Connection ~ 5100 3050
Connection ~ 5300 3150
Connection ~ 4200 3150
Connection ~ 6000 3300
Wire Wire Line
	5100 2850 5100 3050
Wire Wire Line
	5700 3250 5700 4250
Wire Wire Line
	5700 4250 5600 4250
Connection ~ 5300 2950
Wire Wire Line
	5000 3050 5600 3050
Wire Wire Line
	5600 3050 5600 2650
Wire Wire Line
	5600 2650 5100 2650
Wire Wire Line
	3800 2950 5700 2950
Wire Wire Line
	5750 4050 5750 4150
Wire Wire Line
	5750 4150 5900 4150
Wire Wire Line
	5900 4150 5900 5100
Wire Wire Line
	5300 4150 5250 4150
Wire Wire Line
	3900 2850 3900 3800
Wire Wire Line
	3800 2950 3800 3800
Wire Wire Line
	4200 3150 3800 3150
Connection ~ 3800 3150
Wire Wire Line
	4200 3600 3800 3600
Connection ~ 3800 3600
Wire Wire Line
	5100 2850 3900 2850
Connection ~ 5100 2850
Wire Wire Line
	4500 4900 4500 4800
Wire Wire Line
	4150 4800 4950 4800
Wire Wire Line
	4950 4800 4950 3250
Wire Wire Line
	4950 3250 5300 3250
Connection ~ 4500 4800
Wire Wire Line
	3800 3600 3800 4900
Wire Wire Line
	4500 5200 4500 5400
Wire Wire Line
	4400 4350 4400 4900
Wire Wire Line
	3600 3300 6000 3300
Wire Wire Line
	5300 3350 4850 3350
Wire Wire Line
	4850 3350 4850 4700
Wire Wire Line
	4850 4700 4400 4700
Connection ~ 4400 4900
Connection ~ 4300 5000
Connection ~ 4200 5100
Text GLabel 4400 5700 3    60   Input ~ 0
AT
Connection ~ 5300 4250
Wire Wire Line
	5300 3450 4750 3450
Wire Wire Line
	4750 3450 4750 4600
Wire Wire Line
	4750 4600 4300 4600
Wire Wire Line
	4300 4600 4300 5000
Wire Wire Line
	5300 3550 4650 3550
Wire Wire Line
	4650 3550 4650 4500
Wire Wire Line
	4650 4500 4200 4500
Wire Wire Line
	4200 4500 4200 5100
$Comp
L R R7
U 1 1 5A9082D4
P 4400 5050
F 0 "R7" V 4350 4900 50  0000 C CNN
F 1 "12k" V 4400 5050 50  0000 C CNN
F 2 "" V 4330 5050 50  0001 C CNN
F 3 "" H 4400 5050 50  0001 C CNN
	1    4400 5050
	1    0    0    -1  
$EndComp
Wire Wire Line
	4400 5200 4400 5400
$Comp
L R R6
U 1 1 5A908414
P 4400 4200
F 0 "R6" V 4480 4200 50  0000 C CNN
F 1 "160k" V 4400 4200 50  0000 C CNN
F 2 "" V 4330 4200 50  0001 C CNN
F 3 "" H 4400 4200 50  0001 C CNN
	1    4400 4200
	1    0    0    -1  
$EndComp
$Comp
L R R5
U 1 1 5A9084CF
P 4000 4900
F 0 "R5" V 4050 4750 50  0000 C CNN
F 1 "12k" V 4000 4900 50  0000 C CNN
F 2 "" V 3930 4900 50  0001 C CNN
F 3 "" H 4000 4900 50  0001 C CNN
	1    4000 4900
	0    1    1    0   
$EndComp
Wire Wire Line
	3800 4800 3850 4800
Connection ~ 3800 4800
Wire Wire Line
	3800 4900 3850 4900
Wire Wire Line
	4400 4900 4150 4900
Wire Wire Line
	3900 3800 4400 3800
Wire Wire Line
	4400 3800 4400 4050
Connection ~ 4400 4700
Text Notes 4350 6050 0    60   ~ 0
voltage divider with offset\n0-2.5V  ->  0.125-1.32V
Wire Wire Line
	3400 3400 3800 3400
Connection ~ 3800 3400
Wire Wire Line
	3400 3500 3900 3500
Connection ~ 3900 3500
Wire Wire Line
	3600 3300 3600 3600
Wire Wire Line
	3600 3600 3400 3600
Wire Wire Line
	3400 3700 6100 3700
Wire Wire Line
	6100 3450 6100 5100
Wire Wire Line
	6100 3450 6950 3450
Connection ~ 6100 3700
$EndSCHEMATC
