EESchema Schematic File Version 2
LIBS:mrover-rescue
LIBS:power
LIBS:device
LIBS:transistors
LIBS:conn
LIBS:linear
LIBS:regul
LIBS:74xx
LIBS:cmos4000
LIBS:adc-dac
LIBS:memory
LIBS:xilinx
LIBS:microcontrollers
LIBS:dsp
LIBS:microchip
LIBS:analog_switches
LIBS:motorola
LIBS:texas
LIBS:intel
LIBS:audio
LIBS:interface
LIBS:digital-audio
LIBS:philips
LIBS:display
LIBS:cypress
LIBS:siliconi
LIBS:opto
LIBS:atmel
LIBS:contrib
LIBS:valves
LIBS:mylib
LIBS:ArduProMiniTKB
LIBS:mrover-cache
EELAYER 25 0
EELAYER END
$Descr A4 11693 8268
encoding utf-8
Sheet 1 1
Title "Mecanumrover"
Date "2017-02-05"
Rev ""
Comp "A&O"
Comment1 "GPIO numbering schema: WIRINGPI[BCM]"
Comment2 ""
Comment3 ""
Comment4 ""
$EndDescr
$Comp
L GY-271 U1
U 1 1 5896DEE4
P 5200 6250
F 0 "U1" H 4950 6900 60  0000 C CNN
F 1 "GY-271" H 5300 6900 60  0000 C CNN
F 2 "" H 5200 6250 60  0000 C CNN
F 3 "" H 5200 6250 60  0000 C CNN
	1    5200 6250
	1    0    0    -1  
$EndComp
$Comp
L Adafruit_I2C_Motor_HAT U6
U 1 1 5896DF52
P 3450 2150
F 0 "U6" H 3450 2950 60  0000 C CNN
F 1 "Adafruit_I2C_Motor_HAT" H 3750 1750 60  0000 C CNN
F 2 "" H 4300 2950 60  0000 C CNN
F 3 "" H 4300 2950 60  0000 C CNN
	1    3450 2150
	1    0    0    -1  
$EndComp
$Comp
L Battery-RESCUE-mrover BT2
U 1 1 5896E1D3
P 3850 900
F 0 "BT2" H 3950 950 50  0000 L CNN
F 1 "12V battery" V 3950 400 50  0000 L CNN
F 2 "" V 3850 940 50  0000 C CNN
F 3 "" V 3850 940 50  0000 C CNN
	1    3850 900 
	0    -1   -1   0   
$EndComp
Text GLabel 4300 1750 2    60   Input ~ 0
SDA.1
Text GLabel 4300 1850 2    60   Input ~ 0
SCL.1
Text GLabel 5650 5950 2    60   Input ~ 0
SCL.1
Text GLabel 5650 6050 2    60   Input ~ 0
SDA.1
$Comp
L +3.3V #PWR01
U 1 1 5896E3E6
P 5700 5650
F 0 "#PWR01" H 5700 5500 50  0001 C CNN
F 1 "+3.3V" H 5700 5790 50  0000 C CNN
F 2 "" H 5700 5650 50  0000 C CNN
F 3 "" H 5700 5650 50  0000 C CNN
	1    5700 5650
	1    0    0    -1  
$EndComp
$Comp
L GND #PWR02
U 1 1 5896E42C
P 6000 6250
F 0 "#PWR02" H 6000 6000 50  0001 C CNN
F 1 "GND" H 6000 6100 50  0000 C CNN
F 2 "" H 6000 6250 50  0000 C CNN
F 3 "" H 6000 6250 50  0000 C CNN
	1    6000 6250
	1    0    0    -1  
$EndComp
$Comp
L DC_Motor M1
U 1 1 5896E53A
P 1200 2000
F 0 "M1" H 950 2250 60  0000 C CNN
F 1 "front left" H 1500 2700 60  0000 C CNN
F 2 "" H 1200 2000 60  0000 C CNN
F 3 "" H 1200 2000 60  0000 C CNN
	1    1200 2000
	1    0    0    -1  
$EndComp
$Comp
L DC_Motor M2
U 1 1 5896E5CF
P 2200 2000
F 0 "M2" H 1950 2250 60  0000 C CNN
F 1 "front right" H 2500 2700 60  0000 C CNN
F 2 "" H 2200 2000 60  0000 C CNN
F 3 "" H 2200 2000 60  0000 C CNN
	1    2200 2000
	1    0    0    -1  
$EndComp
$Comp
L DC_Motor M3
U 1 1 5896E885
P 1200 2850
F 0 "M3" H 950 3100 60  0000 C CNN
F 1 "rear left" H 1500 3550 60  0000 C CNN
F 2 "" H 1200 2850 60  0000 C CNN
F 3 "" H 1200 2850 60  0000 C CNN
	1    1200 2850
	1    0    0    -1  
$EndComp
$Comp
L DC_Motor M4
U 1 1 5896E908
P 2200 2850
F 0 "M4" H 1950 3100 60  0000 C CNN
F 1 "rear right" H 2500 3550 60  0000 C CNN
F 2 "" H 2200 2850 60  0000 C CNN
F 3 "" H 2200 2850 60  0000 C CNN
	1    2200 2850
	1    0    0    -1  
$EndComp
Wire Wire Line
	3600 1200 3800 1200
Wire Wire Line
	3950 1200 4100 1200
Wire Wire Line
	5650 5850 6000 5850
Wire Wire Line
	6000 5850 6000 6250
Wire Wire Line
	3200 1500 3200 900 
Wire Wire Line
	3200 900  700  900 
Wire Wire Line
	700  900  700  1500
Wire Wire Line
	2850 1600 3200 1600
Wire Wire Line
	3200 2000 700  2000
Wire Wire Line
	700  2000 700  2350
Wire Wire Line
	3200 2100 1600 2100
Wire Wire Line
	1600 2100 1600 2350
Wire Wire Line
	3200 2250 2850 2250
Wire Wire Line
	2850 2250 2850 2700
Wire Wire Line
	2850 2700 1700 2700
Wire Wire Line
	1700 2700 1700 2350
Wire Wire Line
	3200 2350 2600 2350
Wire Wire Line
	3200 1750 1700 1750
Wire Wire Line
	1700 1750 1700 1500
Wire Wire Line
	3200 1850 2600 1850
Wire Wire Line
	2600 1850 2600 1500
$Comp
L SW_PUSH SW1
U 1 1 5896E3E0
P 5200 7100
F 0 "SW1" H 5350 7210 50  0000 C CNN
F 1 "SHUTDOWN" H 5200 7020 50  0000 C CNN
F 2 "" H 5200 7100 50  0000 C CNN
F 3 "" H 5200 7100 50  0000 C CNN
	1    5200 7100
	1    0    0    -1  
$EndComp
$Comp
L GND #PWR03
U 1 1 5896E44F
P 5550 7400
F 0 "#PWR03" H 5550 7150 50  0001 C CNN
F 1 "GND" H 5550 7250 50  0000 C CNN
F 2 "" H 5550 7400 50  0000 C CNN
F 3 "" H 5550 7400 50  0000 C CNN
	1    5550 7400
	1    0    0    -1  
$EndComp
Wire Wire Line
	4900 7100 4900 7400
$Comp
L R R1
U 1 1 5896E4BA
P 5550 6950
F 0 "R1" V 5630 6950 50  0000 C CNN
F 1 "13k" V 5550 6950 50  0000 C CNN
F 2 "" V 5480 6950 50  0000 C CNN
F 3 "" H 5550 6950 50  0000 C CNN
	1    5550 6950
	1    0    0    -1  
$EndComp
$Comp
L R R2
U 1 1 5896E50F
P 5750 7100
F 0 "R2" V 5830 7100 50  0000 C CNN
F 1 "450" V 5750 7100 50  0000 C CNN
F 2 "" V 5680 7100 50  0000 C CNN
F 3 "" H 5750 7100 50  0000 C CNN
	1    5750 7100
	0    1    1    0   
$EndComp
Wire Wire Line
	5500 7100 5600 7100
Connection ~ 5550 7100
$Comp
L +3.3V #PWR04
U 1 1 5896E673
P 5550 6800
F 0 "#PWR04" H 5550 6650 50  0001 C CNN
F 1 "+3.3V" H 5550 6940 50  0000 C CNN
F 2 "" H 5550 6800 50  0000 C CNN
F 3 "" H 5550 6800 50  0000 C CNN
	1    5550 6800
	1    0    0    -1  
$EndComp
Text GLabel 6000 7100 2    60   Input ~ 0
GPIO.29[21]
Wire Wire Line
	2850 1600 2850 1000
Wire Wire Line
	2850 1000 1600 1000
Wire Wire Line
	1600 1000 1600 1500
$Comp
L 2/4_channel_logic_level_shifter U5
U 1 1 58973831
P 2350 5550
F 0 "U5" H 2250 5950 60  0000 C CNN
F 1 "2/4_channel_logic_level_shifter" H 2950 6250 60  0000 C CNN
F 2 "" H 1550 6100 60  0000 C CNN
F 3 "" H 1550 6100 60  0000 C CNN
	1    2350 5550
	0    1    1    0   
$EndComp
$Comp
L 1602-I2C U3
U 1 1 5897393C
P 1250 6750
F 0 "U3" H 700 7900 60  0000 C CNN
F 1 "1602-I2C" H 1550 7900 60  0000 C CNN
F 2 "" H 1250 6750 60  0000 C CNN
F 3 "" H 1250 6750 60  0000 C CNN
	1    1250 6750
	1    0    0    -1  
$EndComp
$Comp
L +5V #PWR05
U 1 1 58973B1E
P 1850 5400
F 0 "#PWR05" H 1850 5250 50  0001 C CNN
F 1 "+5V" H 1850 5540 50  0000 C CNN
F 2 "" H 1850 5400 50  0000 C CNN
F 3 "" H 1850 5400 50  0000 C CNN
	1    1850 5400
	1    0    0    -1  
$EndComp
Wire Wire Line
	1750 5750 1850 5750
Wire Wire Line
	2050 5850 2150 5850
Wire Wire Line
	1850 5750 1850 5400
$Comp
L GND #PWR06
U 1 1 58973D09
P 1850 6450
F 0 "#PWR06" H 1850 6200 50  0001 C CNN
F 1 "GND" H 1850 6300 50  0000 C CNN
F 2 "" H 1850 6450 50  0000 C CNN
F 3 "" H 1850 6450 50  0000 C CNN
	1    1850 6450
	1    0    0    -1  
$EndComp
Wire Wire Line
	2150 5950 2050 5950
Wire Wire Line
	2050 5950 2050 6350
Wire Wire Line
	1850 6350 3800 6350
Wire Wire Line
	1850 6050 1850 6450
Wire Wire Line
	1750 6050 1850 6050
Connection ~ 1850 6350
Wire Wire Line
	1750 5850 1950 5850
Wire Wire Line
	1950 5850 1950 5650
Wire Wire Line
	1950 5650 2150 5650
Wire Wire Line
	1750 5950 1950 5950
Wire Wire Line
	1950 5950 1950 6150
Wire Wire Line
	1950 6150 2150 6150
Wire Wire Line
	2050 5850 2050 5450
Wire Wire Line
	2050 5450 1850 5450
Connection ~ 1850 5450
Text GLabel 3150 5650 2    60   Input ~ 0
SDA.1
Text GLabel 3150 6150 2    60   Input ~ 0
SCL.1
$Comp
L GND #PWR07
U 1 1 58973FA8
P 3800 6400
F 0 "#PWR07" H 3800 6150 50  0001 C CNN
F 1 "GND" H 3800 6250 50  0000 C CNN
F 2 "" H 3800 6400 50  0000 C CNN
F 3 "" H 3800 6400 50  0000 C CNN
	1    3800 6400
	1    0    0    -1  
$EndComp
Wire Wire Line
	3800 5950 3800 6400
Connection ~ 2050 6350
Wire Wire Line
	3150 5950 3800 5950
Connection ~ 3800 6350
$Comp
L +3.3V #PWR08
U 1 1 58974086
P 3800 5450
F 0 "#PWR08" H 3800 5300 50  0001 C CNN
F 1 "+3.3V" H 3800 5590 50  0000 C CNN
F 2 "" H 3800 5450 50  0000 C CNN
F 3 "" H 3800 5450 50  0000 C CNN
	1    3800 5450
	1    0    0    -1  
$EndComp
Wire Wire Line
	3800 5450 3800 5850
Wire Wire Line
	3800 5850 3150 5850
NoConn ~ 4300 2350
NoConn ~ 4300 2250
NoConn ~ 4300 2150
NoConn ~ 5650 6150
NoConn ~ 2150 5750
NoConn ~ 2150 6050
NoConn ~ 3150 5750
NoConn ~ 3150 6050
Text Notes 4800 5950 0    60   ~ 0
compass
$Comp
L BD139 Q1
U 1 1 589ED4D6
P 4050 7350
F 0 "Q1" H 4250 7425 50  0000 L CNN
F 1 "BD139" H 4250 7350 50  0000 L CNN
F 2 "TO-126" H 4250 7275 50  0000 L CIN
F 3 "" H 4050 7350 50  0000 L CNN
	1    4050 7350
	1    0    0    -1  
$EndComp
$Comp
L R R5
U 1 1 589ED7FF
P 3700 7350
F 0 "R5" V 3780 7350 50  0000 C CNN
F 1 "20k" V 3700 7350 50  0000 C CNN
F 2 "" V 3630 7350 50  0000 C CNN
F 3 "" H 3700 7350 50  0000 C CNN
	1    3700 7350
	0    1    1    0   
$EndComp
Text GLabel 3550 7350 0    60   Input ~ 0
GPIO.?
$Comp
L +5V #PWR09
U 1 1 589EDE83
P 4150 7000
F 0 "#PWR09" H 4150 6850 50  0001 C CNN
F 1 "+5V" H 4150 7140 50  0000 C CNN
F 2 "" H 4150 7000 50  0000 C CNN
F 3 "" H 4150 7000 50  0000 C CNN
	1    4150 7000
	1    0    0    -1  
$EndComp
Wire Wire Line
	4150 7000 4150 7150
$Comp
L ADS1115 U8
U 1 1 589EE31B
P 1150 4750
F 0 "U8" H 2300 4600 60  0000 C CNN
F 1 "ADS1115" H 2950 5400 60  0000 C CNN
F 2 "" H 2300 4600 60  0000 C CNN
F 3 "" H 2300 4600 60  0000 C CNN
	1    1150 4750
	1    0    0    -1  
$EndComp
Text GLabel 3150 4600 2    60   Input ~ 0
SDA.1
Text GLabel 3150 4700 2    60   Input ~ 0
SCL.1
$Comp
L +3.3V #PWR010
U 1 1 589EE589
P 2050 4450
F 0 "#PWR010" H 2050 4300 50  0001 C CNN
F 1 "+3.3V" H 2050 4590 50  0000 C CNN
F 2 "" H 2050 4450 50  0000 C CNN
F 3 "" H 2050 4450 50  0000 C CNN
	1    2050 4450
	1    0    0    -1  
$EndComp
$Comp
L GND #PWR011
U 1 1 589EE5BF
P 2050 4600
F 0 "#PWR011" H 2050 4350 50  0001 C CNN
F 1 "GND" H 2050 4450 50  0000 C CNN
F 2 "" H 2050 4600 50  0000 C CNN
F 3 "" H 2050 4600 50  0000 C CNN
	1    2050 4600
	1    0    0    -1  
$EndComp
$Comp
L HC-SR04 U13
U 1 1 58A04C2C
P 9150 5950
F 0 "U13" H 9450 7100 60  0000 C CNN
F 1 "HC-SR04" H 9900 7100 60  0000 C CNN
F 2 "" H 10200 7200 60  0000 C CNN
F 3 "" H 10200 7200 60  0000 C CNN
	1    9150 5950
	1    0    0    -1  
$EndComp
$Comp
L R R6
U 1 1 58A04CD9
P 9650 5600
F 0 "R6" V 9730 5600 50  0000 C CNN
F 1 "4k7" V 9650 5600 50  0000 C CNN
F 2 "" V 9580 5600 50  0000 C CNN
F 3 "" H 9650 5600 50  0000 C CNN
	1    9650 5600
	1    0    0    -1  
$EndComp
$Comp
L R R7
U 1 1 58A04D30
P 9650 5900
F 0 "R7" V 9730 5900 50  0000 C CNN
F 1 "8k2" V 9650 5900 50  0000 C CNN
F 2 "" V 9580 5900 50  0000 C CNN
F 3 "" H 9650 5900 50  0000 C CNN
	1    9650 5900
	1    0    0    -1  
$EndComp
$Comp
L GND #PWR013
U 1 1 58A04F51
P 9650 6100
F 0 "#PWR013" H 9650 5850 50  0001 C CNN
F 1 "GND" H 9650 5950 50  0000 C CNN
F 2 "" H 9650 6100 50  0000 C CNN
F 3 "" H 9650 6100 50  0000 C CNN
	1    9650 6100
	1    0    0    -1  
$EndComp
Wire Wire Line
	9650 6050 9650 6100
Wire Wire Line
	9550 5450 9550 6100
Wire Wire Line
	9550 6100 9650 6100
$Comp
L +5V #PWR014
U 1 1 58A05120
P 10150 5250
F 0 "#PWR014" H 10150 5100 50  0001 C CNN
F 1 "+5V" H 10150 5390 50  0000 C CNN
F 2 "" H 10150 5250 50  0000 C CNN
F 3 "" H 10150 5250 50  0000 C CNN
	1    10150 5250
	1    0    0    -1  
$EndComp
Wire Wire Line
	9850 5450 10150 5450
Wire Wire Line
	10150 5450 10150 5250
Text GLabel 10250 5550 2    60   Input ~ 0
GPIO.0[17]
Text GLabel 10250 5750 2    60   Input ~ 0
GPIO.1[18]
Wire Wire Line
	10250 5750 9650 5750
Wire Wire Line
	10250 5550 9750 5550
Wire Wire Line
	9750 5550 9750 5450
Text Notes 10250 4950 0    60   ~ 0
ultrasonic\ndistance sensor
Wire Wire Line
	3700 900  3600 900 
Wire Wire Line
	3600 900  3600 1200
Wire Wire Line
	4000 900  4100 900 
Wire Wire Line
	4100 900  4100 1200
$Comp
L Battery-RESCUE-mrover BT1
U 1 1 58A17B2F
P 1000 7250
F 0 "BT1" H 800 7400 50  0000 L CNN
F 1 "5V power bank" H 700 7050 50  0000 L CNN
F 2 "" V 1000 7290 50  0000 C CNN
F 3 "" V 1000 7290 50  0000 C CNN
	1    1000 7250
	1    0    0    -1  
$EndComp
$Comp
L MP1584 U4
U 1 1 58A17DC5
P 1350 7550
F 0 "U4" H 1650 7550 60  0000 C CNN
F 1 "MP1584" H 2050 8150 60  0000 C CNN
F 2 "" H 1350 7550 60  0000 C CNN
F 3 "" H 1350 7550 60  0000 C CNN
	1    1350 7550
	1    0    0    -1  
$EndComp
Wire Wire Line
	1000 7100 1400 7100
Wire Wire Line
	1400 7100 1400 7150
Wire Wire Line
	1000 7400 1400 7400
Wire Wire Line
	1400 7400 1400 7300
$Comp
L CP C1
U 1 1 58A1800F
P 1250 7250
F 0 "C1" H 1275 7350 50  0000 L CNN
F 1 "1000uF" H 1275 7150 50  0000 L CNN
F 2 "" H 1288 7100 50  0000 C CNN
F 3 "" H 1250 7250 50  0000 C CNN
	1    1250 7250
	1    0    0    -1  
$EndComp
$Comp
L CP C2
U 1 1 58A180A2
P 2650 7250
F 0 "C2" H 2675 7350 50  0000 L CNN
F 1 "470uF" H 2675 7150 50  0000 L CNN
F 2 "" H 2688 7100 50  0000 C CNN
F 3 "" H 2650 7250 50  0000 C CNN
	1    2650 7250
	1    0    0    -1  
$EndComp
$Comp
L GND #PWR015
U 1 1 58A18308
P 1250 7400
F 0 "#PWR015" H 1250 7150 50  0001 C CNN
F 1 "GND" H 1250 7250 50  0000 C CNN
F 2 "" H 1250 7400 50  0000 C CNN
F 3 "" H 1250 7400 50  0000 C CNN
	1    1250 7400
	1    0    0    -1  
$EndComp
$Comp
L +5V #PWR016
U 1 1 58A183EE
P 1250 7100
F 0 "#PWR016" H 1250 6950 50  0001 C CNN
F 1 "+5V" H 1250 7240 50  0000 C CNN
F 2 "" H 1250 7100 50  0000 C CNN
F 3 "" H 1250 7100 50  0000 C CNN
	1    1250 7100
	1    0    0    -1  
$EndComp
Wire Wire Line
	2650 7100 2400 7100
Wire Wire Line
	2400 7100 2400 7150
Wire Wire Line
	2650 7400 2400 7400
Wire Wire Line
	2400 7400 2400 7300
$Comp
L +3.3V #PWR017
U 1 1 58A1864E
P 2650 7100
F 0 "#PWR017" H 2650 6950 50  0001 C CNN
F 1 "+3.3V" H 2650 7240 50  0000 C CNN
F 2 "" H 2650 7100 50  0000 C CNN
F 3 "" H 2650 7100 50  0000 C CNN
	1    2650 7100
	1    0    0    -1  
$EndComp
$Comp
L GND #PWR018
U 1 1 58A18734
P 2650 7400
F 0 "#PWR018" H 2650 7150 50  0001 C CNN
F 1 "GND" H 2650 7250 50  0000 C CNN
F 2 "" H 2650 7400 50  0000 C CNN
F 3 "" H 2650 7400 50  0000 C CNN
	1    2650 7400
	1    0    0    -1  
$EndComp
Wire Wire Line
	2400 3900 2400 3950
Text Notes 10900 1850 0    60   ~ 0
IR
Text Notes 10550 3500 0    60   ~ 0
SONAR
$Comp
L SH1106 U2
U 1 1 58A1B5CB
P 800 5050
F 0 "U2" H 850 5600 60  0000 C CNN
F 1 "SH1106" H 1400 5100 60  0000 C CNN
F 2 "" H 800 5050 60  0000 C CNN
F 3 "" H 800 5050 60  0000 C CNN
	1    800  5050
	1    0    0    -1  
$EndComp
$Comp
L +3.3V #PWR021
U 1 1 58A1B74A
P 1100 4350
F 0 "#PWR021" H 1100 4200 50  0001 C CNN
F 1 "+3.3V" H 1000 4500 50  0000 C CNN
F 2 "" H 1100 4350 50  0000 C CNN
F 3 "" H 1100 4350 50  0000 C CNN
	1    1100 4350
	1    0    0    -1  
$EndComp
Text GLabel 1200 4350 1    60   Input ~ 0
SCL.1
Text GLabel 1300 4350 1    60   Input ~ 0
SDA.1
$Comp
L GND #PWR022
U 1 1 58A1B826
P 700 4350
F 0 "#PWR022" H 700 4100 50  0001 C CNN
F 1 "GND" H 700 4200 50  0000 C CNN
F 2 "" H 700 4350 50  0000 C CNN
F 3 "" H 700 4350 50  0000 C CNN
	1    700  4350
	1    0    0    -1  
$EndComp
Wire Wire Line
	700  4350 1000 4350
$Comp
L LM7805 U?
U 1 1 58ABEA9F
P 7650 5900
F 0 "U?" H 7800 5704 50  0000 C CNN
F 1 "LM7805" H 7650 6100 50  0000 C CNN
F 2 "" H 7650 5900 50  0000 C CNN
F 3 "" H 7650 5900 50  0000 C CNN
	1    7650 5900
	1    0    0    -1  
$EndComp
$Comp
L C C?
U 1 1 58ABEC62
P 7250 6000
F 0 "C?" H 7275 6100 50  0000 L CNN
F 1 "0.33uF" H 7275 5900 50  0000 L CNN
F 2 "" H 7288 5850 50  0000 C CNN
F 3 "" H 7250 6000 50  0000 C CNN
	1    7250 6000
	1    0    0    -1  
$EndComp
Wire Wire Line
	6900 5850 7250 5850
Wire Wire Line
	6900 6150 8450 6150
$Comp
L GND #PWR?
U 1 1 58ABF047
P 7650 6150
F 0 "#PWR?" H 7650 5900 50  0001 C CNN
F 1 "GND" H 7650 6000 50  0000 C CNN
F 2 "" H 7650 6150 50  0000 C CNN
F 3 "" H 7650 6150 50  0000 C CNN
	1    7650 6150
	1    0    0    -1  
$EndComp
$Comp
L C C?
U 1 1 58ABF133
P 8050 6000
F 0 "C?" H 8075 6100 50  0000 L CNN
F 1 "0.1uF" H 8075 5900 50  0000 L CNN
F 2 "" H 8088 5850 50  0000 C CNN
F 3 "" H 8050 6000 50  0000 C CNN
	1    8050 6000
	1    0    0    -1  
$EndComp
Connection ~ 7650 6150
$Comp
L Battery-RESCUE-mrover 12V
U 1 1 58ABF2DC
P 6900 6000
F 0 "12V" H 7000 6050 50  0000 L CNN
F 1 "Battery" H 7000 5950 50  0000 L CNN
F 2 "" V 6900 6040 50  0000 C CNN
F 3 "" V 6900 6040 50  0000 C CNN
	1    6900 6000
	1    0    0    -1  
$EndComp
Connection ~ 7250 6150
$Comp
L SG90 U?
U 1 1 58ABF9FB
P 9350 6700
F 0 "U?" H 9900 7400 60  0000 C CNN
F 1 "SG90" H 10500 7400 60  0000 C CNN
F 2 "" H 9350 6700 60  0000 C CNN
F 3 "" H 9350 6700 60  0000 C CNN
	1    9350 6700
	0    -1   -1   0   
$EndComp
Wire Wire Line
	8450 5850 8050 5850
Wire Wire Line
	8450 6150 8450 5950
Connection ~ 8050 6150
$Comp
L PROMINI uP?
U 1 1 58C1E535
P 9500 900
F 0 "uP?" H 8500 0   60  0000 C CNN
F 1 "PROMINI" H 9300 0   60  0000 C CNN
F 2 "" H 9500 900 60  0000 C CNN
F 3 "" H 9500 900 60  0000 C CNN
	1    9500 900 
	1    0    0    -1  
$EndComp
$Comp
L HC-SR04 U?
U 1 1 58C1ED94
P 9850 2500
F 0 "U?" H 10150 3650 60  0000 C CNN
F 1 "HC-SR04" H 10600 3650 60  0000 C CNN
F 2 "" H 10900 3750 60  0000 C CNN
F 3 "" H 10900 3750 60  0000 C CNN
	1    9850 2500
	0    1    1    0   
$EndComp
$Comp
L 0A41SK U?
U 1 1 58C1EFF2
P 10800 1500
F 0 "U?" H 10500 2050 60  0000 C CNN
F 1 "0A41SK" H 10900 2050 60  0000 C CNN
F 2 "" H 10800 1500 60  0000 C CNN
F 3 "" H 10800 1500 60  0000 C CNN
	1    10800 1500
	-1   0    0    1   
$EndComp
$Comp
L SG90 U?
U 1 1 58C1F2D0
P 7250 2150
F 0 "U?" H 7800 2850 60  0000 C CNN
F 1 "SG90" H 8400 2850 60  0000 C CNN
F 2 "" H 7250 2150 60  0000 C CNN
F 3 "" H 7250 2150 60  0000 C CNN
	1    7250 2150
	0    1    1    0   
$EndComp
$Comp
L +5V #PWR?
U 1 1 58C1F682
P 9750 1800
F 0 "#PWR?" H 9750 1650 50  0001 C CNN
F 1 "+5V" H 9750 1940 50  0000 C CNN
F 2 "" H 9750 1800 50  0000 C CNN
F 3 "" H 9750 1800 50  0000 C CNN
	1    9750 1800
	1    0    0    -1  
$EndComp
$Comp
L +6V #PWR?
U 1 1 58C1FD30
P 8150 2750
F 0 "#PWR?" H 8150 2600 50  0001 C CNN
F 1 "+6V" H 8150 2890 50  0000 C CNN
F 2 "" H 8150 2750 50  0000 C CNN
F 3 "" H 8150 2750 50  0000 C CNN
	1    8150 2750
	1    0    0    -1  
$EndComp
Wire Wire Line
	8300 3100 8150 3100
$Comp
L GND #PWR?
U 1 1 58C212BB
P 9850 3300
F 0 "#PWR?" H 9850 3050 50  0001 C CNN
F 1 "GND" H 9850 3150 50  0000 C CNN
F 2 "" H 9850 3300 50  0000 C CNN
F 3 "" H 9850 3300 50  0000 C CNN
	1    9850 3300
	1    0    0    -1  
$EndComp
Text Label 9400 2700 0    60   ~ 0
IR
Text Label 9400 3000 0    60   ~ 0
ECHO
Text Label 9400 3100 0    60   ~ 0
TRIG
$Comp
L console_board U?
U 1 1 58CEAE03
P 5450 3250
F 0 "U?" H 5950 3800 60  0000 C CNN
F 1 "console_board" H 6600 3800 60  0000 C CNN
F 2 "" H 5450 3250 60  0000 C CNN
F 3 "" H 5450 3250 60  0000 C CNN
	1    5450 3250
	1    0    0    -1  
$EndComp
Text GLabel 7100 1600 2    60   Input ~ 0
SDA.1
Text GLabel 7100 1700 2    60   Input ~ 0
SCL.1
$Comp
L GND #PWR?
U 1 1 58CEB1F4
P 7300 2050
F 0 "#PWR?" H 7300 1800 50  0001 C CNN
F 1 "GND" H 7300 1900 50  0000 C CNN
F 2 "" H 7300 2050 50  0000 C CNN
F 3 "" H 7300 2050 50  0000 C CNN
	1    7300 2050
	1    0    0    -1  
$EndComp
Wire Wire Line
	7100 1900 7300 1900
Wire Wire Line
	7300 1900 7300 2050
$Comp
L +5V #PWR?
U 1 1 58CEB39E
P 7500 1350
F 0 "#PWR?" H 7500 1200 50  0001 C CNN
F 1 "+5V" H 7500 1490 50  0000 C CNN
F 2 "" H 7500 1350 50  0000 C CNN
F 3 "" H 7500 1350 50  0000 C CNN
	1    7500 1350
	1    0    0    -1  
$EndComp
Wire Wire Line
	7100 1500 7500 1500
Wire Wire Line
	7500 1500 7500 1350
$Comp
L +3V3 #PWR?
U 1 1 58CEB4C6
P 7700 1350
F 0 "#PWR?" H 7700 1200 50  0001 C CNN
F 1 "+3V3" H 7700 1490 50  0000 C CNN
F 2 "" H 7700 1350 50  0000 C CNN
F 3 "" H 7700 1350 50  0000 C CNN
	1    7700 1350
	1    0    0    -1  
$EndComp
Wire Wire Line
	7700 1350 7700 1800
Wire Wire Line
	7700 1800 7100 1800
Text GLabel 5700 2350 0    60   Input ~ 0
GPIO.29[21]
Wire Wire Line
	5700 5650 5700 5750
Wire Wire Line
	5700 5750 5650 5750
Text Notes 6250 2600 0    60   ~ 0
OLED SH1106\n2 Buttons\nLevel Shifter\nADC\nCompass
Wire Wire Line
	9750 2300 9650 2300
Wire Wire Line
	9650 2100 9850 2100
Wire Wire Line
	9850 1800 9850 3300
Wire Wire Line
	10350 1800 9850 1800
Connection ~ 9850 2100
Wire Wire Line
	10350 1900 9750 1900
Connection ~ 9750 1900
Connection ~ 9750 2300
Wire Wire Line
	10350 1700 10000 1700
Wire Wire Line
	10000 1700 10000 2700
Wire Wire Line
	10000 2700 9650 2700
Wire Wire Line
	10350 3100 9650 3100
Wire Wire Line
	10350 3000 9650 3000
Wire Wire Line
	10350 2900 9850 2900
Connection ~ 9850 2900
Wire Wire Line
	9750 1800 9750 3200
Wire Wire Line
	9750 3200 10350 3200
Wire Wire Line
	8150 2900 8250 2900
Wire Wire Line
	8250 2900 8250 3300
Wire Wire Line
	8250 3300 9850 3300
Wire Wire Line
	8150 2750 8150 3000
Text GLabel 8950 1550 1    60   Input ~ 0
HSDA
Text GLabel 9050 1550 1    60   Input ~ 0
HSCL
Text GLabel 6400 1100 1    60   Input ~ 0
HSCL
Text GLabel 6500 1100 1    60   Input ~ 0
HSDA
$Comp
L C 100nF
U 1 1 58CEF234
P 5900 7250
F 0 "100nF" H 6050 7250 50  0000 L CNN
F 1 "C" H 5925 7150 50  0000 L CNN
F 2 "" H 5938 7100 50  0000 C CNN
F 3 "" H 5900 7250 50  0000 C CNN
	1    5900 7250
	1    0    0    -1  
$EndComp
Wire Wire Line
	5900 7100 6000 7100
Wire Wire Line
	4900 7400 5900 7400
$Comp
L ST7735 U?
U 1 1 58FC4AD4
P 6350 5400
F 0 "U?" H 6050 5450 60  0000 C CNN
F 1 "ST7735" H 6700 5450 60  0000 C CNN
F 2 "" H 6350 5400 60  0000 C CNN
F 3 "" H 6350 5400 60  0000 C CNN
	1    6350 5400
	1    0    0    -1  
$EndComp
Text GLabel 7450 4750 2    60   Input ~ 0
GPIO.04[23]
Text GLabel 7450 4850 2    60   Input ~ 0
GPIO.05[24]
Text GLabel 7450 4950 2    60   Input ~ 0
SPI0.CE0[8]
Text GLabel 7450 4550 2    60   Input ~ 0
SPI0.SCLK[11]
Text GLabel 7450 4650 2    60   Input ~ 0
SPI0.MOSI[10]
$Comp
L GND #PWR?
U 1 1 58FC5189
P 7200 5250
F 0 "#PWR?" H 7200 5000 50  0001 C CNN
F 1 "GND" H 7200 5100 50  0000 C CNN
F 2 "" H 7200 5250 50  0000 C CNN
F 3 "" H 7200 5250 50  0000 C CNN
	1    7200 5250
	1    0    0    -1  
$EndComp
Wire Wire Line
	7050 5050 7200 5050
Wire Wire Line
	7200 5050 7200 5250
$Comp
L +3.3V #PWR?
U 1 1 58FC5279
P 7300 4350
F 0 "#PWR?" H 7300 4200 50  0001 C CNN
F 1 "+3.3V" H 7300 4490 50  0000 C CNN
F 2 "" H 7300 4350 50  0000 C CNN
F 3 "" H 7300 4350 50  0000 C CNN
	1    7300 4350
	1    0    0    -1  
$EndComp
Wire Wire Line
	7300 4350 7300 5150
Wire Wire Line
	7300 4450 7050 4450
Wire Wire Line
	7300 5150 7050 5150
Connection ~ 7300 4450
Wire Wire Line
	7450 4550 7050 4550
Wire Wire Line
	7450 4650 7050 4650
Wire Wire Line
	7450 4750 7050 4750
Wire Wire Line
	7450 4850 7050 4850
Wire Wire Line
	7450 4950 7050 4950
NoConn ~ 5800 4550
NoConn ~ 5800 4650
NoConn ~ 5800 4750
NoConn ~ 5800 4850
$EndSCHEMATC
