EESchema Schematic File Version 4
LIBS:r2-odometer-cache
EELAYER 26 0
EELAYER END
$Descr A4 11693 8268
encoding utf-8
Sheet 1 1
Title "Rover-2 Odometer"
Date ""
Rev ""
Comp ""
Comment1 ""
Comment2 ""
Comment3 ""
Comment4 ""
$EndDescr
$Comp
L MCU_Module:Arduino_Nano_v2.x A?
U 1 1 5C50C817
P 5400 3750
F 0 "A?" V 5446 2709 50  0000 R CNN
F 1 "Arduino_Nano_v2.x" V 5400 3950 50  0000 R CNN
F 2 "Module:Arduino_Nano" H 5550 2800 50  0001 L CNN
F 3 "https://www.arduino.cc/en/uploads/Main/ArduinoNanoManual23.pdf" H 5400 2750 50  0001 C CNN
	1    5400 3750
	0    -1   -1   0   
$EndComp
$Comp
L mylib:ADNS5020 U?
U 1 1 5C50C9B0
P 1850 4550
F 0 "U?" H 1422 5328 60  0000 R CNN
F 1 "ADNS5020" H 1422 5222 60  0000 R CNN
F 2 "" H 1850 4550 60  0000 C CNN
F 3 "" H 1850 4550 60  0000 C CNN
	1    1850 4550
	-1   0    0    -1  
$EndComp
$Comp
L mylib:ADNS5020 U?
U 1 1 5C50CA98
P 8800 4500
F 0 "U?" H 8372 5278 60  0000 R CNN
F 1 "ADNS5020" H 8372 5172 60  0000 R CNN
F 2 "" H 8800 4500 60  0000 C CNN
F 3 "" H 8800 4500 60  0000 C CNN
	1    8800 4500
	-1   0    0    -1  
$EndComp
Wire Wire Line
	9250 3000 8600 3000
Wire Wire Line
	8600 3250 8600 3000
Connection ~ 8600 3000
Wire Wire Line
	8600 3000 8050 3000
Wire Wire Line
	9250 2850 8750 2850
Wire Wire Line
	8750 3250 8750 2850
Connection ~ 8750 2850
$Comp
L Device:C 100nF
U 1 1 5C50CBCE
P 7600 2700
F 0 "100nF" H 7715 2746 50  0000 L CNN
F 1 "C" H 7715 2655 50  0000 L CNN
F 2 "" H 7638 2550 50  0001 C CNN
F 3 "~" H 7600 2700 50  0001 C CNN
	1    7600 2700
	1    0    0    -1  
$EndComp
Connection ~ 7600 2850
Wire Wire Line
	9050 4300 9050 4400
Wire Wire Line
	9050 4400 8350 4400
Wire Wire Line
	8350 4400 8350 3850
Wire Wire Line
	8350 3850 7250 3850
$Comp
L Device:LED D?
U 1 1 5C50D055
P 8050 3550
F 0 "D?" V 8088 3433 50  0000 R CNN
F 1 "LED" V 7997 3433 50  0000 R CNN
F 2 "" H 8050 3550 50  0001 C CNN
F 3 "~" H 8050 3550 50  0001 C CNN
	1    8050 3550
	0    -1   -1   0   
$EndComp
Wire Wire Line
	8050 3400 8050 3000
Connection ~ 8050 3000
Wire Wire Line
	8050 3700 8050 4500
Wire Wire Line
	8050 4500 8900 4500
Wire Wire Line
	8900 4500 8900 4300
Wire Wire Line
	9050 3250 9050 3200
Wire Wire Line
	9050 3200 8350 3200
Wire Wire Line
	8350 3200 8350 3750
Wire Wire Line
	8350 3750 7150 3750
Wire Wire Line
	7600 2850 7900 2850
$Comp
L Device:CP 4.7uF
U 1 1 5C50D682
P 7900 2700
F 0 "4.7uF" H 8018 2746 50  0000 L CNN
F 1 "CP" H 8018 2655 50  0000 L CNN
F 2 "" H 7938 2550 50  0001 C CNN
F 3 "~" H 7900 2700 50  0001 C CNN
	1    7900 2700
	1    0    0    -1  
$EndComp
Connection ~ 7900 2850
Wire Wire Line
	7900 2850 8750 2850
Wire Wire Line
	7600 2550 7900 2550
Wire Wire Line
	7900 2550 8900 2550
Wire Wire Line
	8900 2550 8900 3250
Connection ~ 7900 2550
Wire Wire Line
	9250 4600 8600 4600
Wire Wire Line
	8600 4300 8600 4600
Connection ~ 8600 4600
Wire Wire Line
	8600 4600 5900 4600
Wire Wire Line
	8750 4300 8750 4700
Connection ~ 8750 4700
Wire Wire Line
	8750 4700 9250 4700
Wire Wire Line
	9250 4800 7600 4800
Text Label 7300 4600 0    50   ~ 0
NCS
Text Label 7050 4700 0    50   ~ 0
NRESET
Text Label 6850 4800 0    50   ~ 0
GND
Text Label 6650 3000 0    50   ~ 0
VDD
Text Label 6750 2850 0    50   ~ 0
GND
Wire Wire Line
	6000 4250 6000 4700
Wire Wire Line
	6000 4700 7900 4700
Wire Wire Line
	5900 4250 5900 4600
Wire Wire Line
	5800 4250 5800 4500
Wire Wire Line
	5800 4500 7250 4500
Wire Wire Line
	7250 4500 7250 3850
Wire Wire Line
	5700 4250 5700 4400
Wire Wire Line
	5700 4400 7150 4400
Wire Wire Line
	7150 4400 7150 3750
$Comp
L Device:R 6.8k
U 1 1 5C51052B
P 7750 4450
F 0 "6.8k" V 7543 4450 50  0000 C CNN
F 1 "R" V 7634 4450 50  0000 C CNN
F 2 "" V 7680 4450 50  0001 C CNN
F 3 "~" H 7750 4450 50  0001 C CNN
	1    7750 4450
	0    1    1    0   
$EndComp
Wire Wire Line
	7600 4450 7600 4800
Connection ~ 7600 4800
Wire Wire Line
	7900 4450 7900 4700
Connection ~ 7900 4700
Wire Wire Line
	7900 4700 8750 4700
Wire Wire Line
	1250 3000 1650 3000
Wire Wire Line
	1250 2850 1800 2850
Wire Wire Line
	1800 3300 1800 2850
Connection ~ 1800 2850
Wire Wire Line
	1800 2850 2400 2850
Wire Wire Line
	1650 3300 1650 3000
Connection ~ 1650 3000
Wire Wire Line
	1650 3000 2700 3000
Wire Wire Line
	1250 4800 3100 4800
Wire Wire Line
	5600 4250 5600 4700
Wire Wire Line
	5600 4700 2800 4700
Wire Wire Line
	5500 4250 5500 4600
Wire Wire Line
	5500 4600 1650 4600
Wire Wire Line
	1800 4350 1800 4700
Connection ~ 1800 4700
Wire Wire Line
	1800 4700 1250 4700
Wire Wire Line
	1650 4350 1650 4600
Connection ~ 1650 4600
Wire Wire Line
	1650 4600 1250 4600
$Comp
L Device:LED D?
U 1 1 5C51A495
P 2700 3300
F 0 "D?" V 2738 3183 50  0000 R CNN
F 1 "LED" V 2647 3183 50  0000 R CNN
F 2 "" H 2700 3300 50  0001 C CNN
F 3 "~" H 2700 3300 50  0001 C CNN
	1    2700 3300
	0    -1   -1   0   
$EndComp
$Comp
L Device:R 6.8k
U 1 1 5C51A516
P 2950 4450
F 0 "6.8k" V 2743 4450 50  0000 C CNN
F 1 "R" V 2834 4450 50  0000 C CNN
F 2 "" V 2880 4450 50  0001 C CNN
F 3 "~" H 2950 4450 50  0001 C CNN
	1    2950 4450
	0    1    1    0   
$EndComp
$Comp
L Device:CP 4.7uF
U 1 1 5C51A5F9
P 2400 2700
F 0 "4.7uF" H 2518 2746 50  0000 L CNN
F 1 "CP" H 2518 2655 50  0000 L CNN
F 2 "" H 2438 2550 50  0001 C CNN
F 3 "~" H 2400 2700 50  0001 C CNN
	1    2400 2700
	1    0    0    -1  
$EndComp
$Comp
L Device:C 100nF
U 1 1 5C51A684
P 2750 2700
F 0 "100nF" H 2865 2746 50  0000 L CNN
F 1 "C" H 2865 2655 50  0000 L CNN
F 2 "" H 2788 2550 50  0001 C CNN
F 3 "~" H 2750 2700 50  0001 C CNN
	1    2750 2700
	1    0    0    -1  
$EndComp
Connection ~ 2400 2850
Wire Wire Line
	2400 2850 2750 2850
Connection ~ 2750 2850
Wire Wire Line
	1950 3300 1950 2550
Wire Wire Line
	1950 2550 2400 2550
Wire Wire Line
	2750 2550 2400 2550
Connection ~ 2400 2550
Wire Wire Line
	2100 3300 2550 3300
Wire Wire Line
	2550 3300 2550 3750
Wire Wire Line
	2550 3750 3850 3750
Wire Wire Line
	2550 3850 3750 3850
Wire Wire Line
	5400 4250 5400 4500
Wire Wire Line
	5400 4500 3750 4500
Wire Wire Line
	3750 4500 3750 3850
Wire Wire Line
	5300 4250 5300 4400
Wire Wire Line
	5300 4400 3850 4400
Wire Wire Line
	3850 4400 3850 3750
Wire Wire Line
	3100 4450 3100 4800
Connection ~ 3100 4800
Wire Wire Line
	2800 4450 2800 4700
Connection ~ 2800 4700
Wire Wire Line
	2800 4700 1800 4700
Wire Wire Line
	1950 4350 1950 4500
Wire Wire Line
	2550 3850 2550 4400
Wire Wire Line
	2550 4400 2100 4400
Wire Wire Line
	2100 4400 2100 4350
Wire Wire Line
	2700 3450 2700 4500
Wire Wire Line
	2700 4500 1950 4500
Wire Wire Line
	2700 3150 2700 3000
Connection ~ 2700 3000
Wire Wire Line
	2700 3000 4200 3000
Wire Wire Line
	4200 3550 4200 3000
Connection ~ 4200 3000
Wire Wire Line
	4200 3000 5150 3000
Wire Wire Line
	3100 4800 6550 4800
Wire Wire Line
	2750 2850 5450 2850
Wire Wire Line
	4200 3550 4400 3550
Wire Wire Line
	6400 3650 6550 3650
Wire Wire Line
	6550 3650 6550 2850
Connection ~ 6550 2850
Wire Wire Line
	6550 2850 7600 2850
Wire Wire Line
	6400 3750 6550 3750
Wire Wire Line
	6550 3750 6550 4800
Connection ~ 6550 4800
Wire Wire Line
	6550 4800 7600 4800
$Comp
L Device:C 100nF
U 1 1 5C542FF0
P 5600 2650
F 0 "100nF" V 5348 2650 50  0000 C CNN
F 1 "C" V 5439 2650 50  0000 C CNN
F 2 "" H 5638 2500 50  0001 C CNN
F 3 "~" H 5600 2650 50  0001 C CNN
	1    5600 2650
	0    1    1    0   
$EndComp
$Comp
L Device:CP 47uF
U 1 1 5C543087
P 5300 2650
F 0 "47uF" V 5045 2650 50  0000 C CNN
F 1 "CP" V 5136 2650 50  0000 C CNN
F 2 "" H 5338 2500 50  0001 C CNN
F 3 "~" H 5300 2650 50  0001 C CNN
	1    5300 2650
	0    1    1    0   
$EndComp
Wire Wire Line
	5450 2650 5450 2850
Connection ~ 5450 2650
Connection ~ 5450 2850
Wire Wire Line
	5450 2850 6550 2850
Wire Wire Line
	5150 2650 5150 3000
Connection ~ 5150 3000
Wire Wire Line
	5150 3000 5750 3000
Wire Wire Line
	5750 2650 5750 3000
Connection ~ 5750 3000
Wire Wire Line
	5750 3000 8050 3000
Text Notes 3100 4350 0    50   ~ 0
RESET pulldown\n(during power-on)
$EndSCHEMATC
