EESchema Schematic File Version 4
EELAYER 26 0
EELAYER END
$Descr A4 11693 8268
encoding utf-8
Sheet 1 1
Title "MRover2 Power Supply"
Date ""
Rev ""
Comp ""
Comment1 ""
Comment2 ""
Comment3 ""
Comment4 ""
$EndDescr
$Comp
L mylib:3S_LiPo_Protection U?
U 1 1 5C32F0A9
P 5250 3250
F 0 "U?" H 5350 4187 60  0000 C CNN
F 1 "HX-3S-01LiPo_Protection" H 5350 4081 60  0000 C CNN
F 2 "" H 5250 3250 60  0000 C CNN
F 3 "" H 5250 3250 60  0000 C CNN
	1    5250 3250
	-1   0    0    -1  
$EndComp
$Comp
L Device:Battery_Cell BT?
U 1 1 5C32F1BA
P 3800 2450
F 0 "BT?" H 3918 2546 50  0000 L CNN
F 1 "NCR18650B" H 3918 2455 50  0000 L CNN
F 2 "" V 3800 2510 50  0001 C CNN
F 3 "~" V 3800 2510 50  0001 C CNN
	1    3800 2450
	1    0    0    -1  
$EndComp
$Comp
L Device:Battery_Cell BT?
U 1 1 5C32F222
P 3800 2750
F 0 "BT?" H 3918 2846 50  0000 L CNN
F 1 "NCR18650B" H 3918 2755 50  0000 L CNN
F 2 "" V 3800 2810 50  0001 C CNN
F 3 "~" V 3800 2810 50  0001 C CNN
	1    3800 2750
	1    0    0    -1  
$EndComp
$Comp
L Device:Battery_Cell BT?
U 1 1 5C32F27B
P 3800 3050
F 0 "BT?" H 3918 3146 50  0000 L CNN
F 1 "NCR18650B" H 3918 3055 50  0000 L CNN
F 2 "" V 3800 3110 50  0001 C CNN
F 3 "~" V 3800 3110 50  0001 C CNN
	1    3800 3050
	1    0    0    -1  
$EndComp
Wire Wire Line
	4650 2600 4650 2250
Wire Wire Line
	4650 2250 3800 2250
Wire Wire Line
	4650 2700 4550 2700
Wire Wire Line
	4550 2700 4550 2550
Wire Wire Line
	4550 2550 3800 2550
Connection ~ 3800 2550
Wire Wire Line
	4650 2800 4550 2800
Wire Wire Line
	4550 2800 4550 2850
Wire Wire Line
	4550 2850 3800 2850
Connection ~ 3800 2850
Wire Wire Line
	4650 2900 4650 3150
Wire Wire Line
	4650 3150 3800 3150
$Comp
L Switch:SW_SPDT SW?
U 1 1 5C32F729
P 5850 2600
F 0 "SW?" H 5850 2885 50  0000 C CNN
F 1 "MAIN" H 5850 2794 50  0000 C CNN
F 2 "" H 5850 2600 50  0001 C CNN
F 3 "" H 5850 2600 50  0001 C CNN
	1    5850 2600
	1    0    0    -1  
$EndComp
$Comp
L Diode:1N4003 D?
U 1 1 5C32F90C
P 5000 3550
F 0 "D?" H 5000 3766 50  0000 C CNN
F 1 "1N4003" H 5000 3675 50  0000 C CNN
F 2 "Diode_THT:D_DO-41_SOD81_P10.16mm_Horizontal" H 5000 3375 50  0001 C CNN
F 3 "http://www.vishay.com/docs/88503/1n4001.pdf" H 5000 3550 50  0001 C CNN
	1    5000 3550
	1    0    0    -1  
$EndComp
$Comp
L Device:L L?
U 1 1 5C32F990
P 4700 3550
F 0 "L?" H 4850 3500 50  0000 R CNN
F 1 "L" V 4800 3600 50  0000 R CNN
F 2 "" H 4700 3550 50  0001 C CNN
F 3 "~" H 4700 3550 50  0001 C CNN
	1    4700 3550
	0    -1   -1   0   
$EndComp
$Comp
L Device:CP C?
U 1 1 5C32FBD7
P 4550 3700
F 0 "C?" H 4668 3746 50  0000 L CNN
F 1 "470uF" H 4668 3655 50  0000 L CNN
F 2 "" H 4588 3550 50  0001 C CNN
F 3 "~" H 4550 3700 50  0001 C CNN
	1    4550 3700
	1    0    0    -1  
$EndComp
$Comp
L Device:C C?
U 1 1 5C32FC79
P 4150 3700
F 0 "C?" H 4265 3746 50  0000 L CNN
F 1 "100nF" H 4265 3655 50  0000 L CNN
F 2 "" H 4188 3550 50  0001 C CNN
F 3 "~" H 4150 3700 50  0001 C CNN
	1    4150 3700
	1    0    0    -1  
$EndComp
Wire Wire Line
	5250 3850 5150 3850
$Comp
L Connector:Barrel_Jack J?
U 1 1 5C3302A0
P 3350 3750
F 0 "J?" H 3405 4075 50  0000 C CNN
F 1 "Barrel_Jack" H 3405 3984 50  0000 C CNN
F 2 "" H 3400 3710 50  0001 C CNN
F 3 "~" H 3400 3710 50  0001 C CNN
	1    3350 3750
	1    0    0    -1  
$EndComp
$Comp
L mylib:MP2315 U?
U 1 1 5C33160A
P 3800 4850
F 0 "U?" H 4250 5300 50  0000 L CNN
F 1 "MP2315 5V" H 3500 5300 50  0000 L CNN
F 2 "" H 3800 4850 50  0001 C CNN
F 3 "" H 3800 4850 50  0001 C CNN
	1    3800 4850
	1    0    0    -1  
$EndComp
Connection ~ 4150 3850
$Comp
L mylib:MP2315 U?
U 1 1 5C3318EE
P 4900 4850
F 0 "U?" H 5300 5300 50  0000 L CNN
F 1 "MP2315 3.3V" H 4550 5300 50  0000 L CNN
F 2 "" H 4900 4850 50  0001 C CNN
F 3 "" H 4900 4850 50  0001 C CNN
	1    4900 4850
	1    0    0    -1  
$EndComp
Wire Wire Line
	5250 3300 3650 3300
Wire Wire Line
	3650 3300 3650 3650
Wire Wire Line
	4150 3550 3950 3550
Wire Wire Line
	3950 3550 3950 4150
Connection ~ 4150 3550
Wire Wire Line
	3950 4150 5050 4150
Wire Wire Line
	5050 4150 5050 4250
Connection ~ 3950 4150
Wire Wire Line
	3950 4150 3950 4250
Connection ~ 4050 3850
Wire Wire Line
	4050 3850 4150 3850
Wire Wire Line
	4050 3850 4050 4250
Wire Wire Line
	5150 3850 5150 4250
Connection ~ 5150 3850
$Comp
L power:GND #PWR?
U 1 1 5C3330F2
P 5800 3850
F 0 "#PWR?" H 5800 3600 50  0001 C CNN
F 1 "GND" H 5805 3677 50  0000 C CNN
F 2 "" H 5800 3850 50  0001 C CNN
F 3 "" H 5800 3850 50  0001 C CNN
	1    5800 3850
	1    0    0    -1  
$EndComp
$Comp
L Device:Voltmeter_DC MES?
U 1 1 5C333240
P 2800 6450
F 0 "MES?" V 3090 6450 50  0000 C CNN
F 1 "Voltmeter_DC" V 2999 6450 50  0000 C CNN
F 2 "" V 2800 6550 50  0001 C CNN
F 3 "~" V 2800 6550 50  0001 C CNN
	1    2800 6450
	0    -1   -1   0   
$EndComp
$Comp
L Switch:SW_Push SW_VIN
U 1 1 5C3337DC
P 2400 5400
F 0 "SW_VIN" H 2400 5685 50  0000 C CNN
F 1 "SW_Push" H 2400 5594 50  0000 C CNN
F 2 "" H 2400 5600 50  0001 C CNN
F 3 "" H 2400 5600 50  0001 C CNN
	1    2400 5400
	1    0    0    -1  
$EndComp
$Comp
L Switch:SW_Push SW_5V
U 1 1 5C333D74
P 2400 5750
F 0 "SW_5V" H 2400 6035 50  0000 C CNN
F 1 "SW_Push" H 2400 5944 50  0000 C CNN
F 2 "" H 2400 5950 50  0001 C CNN
F 3 "" H 2400 5950 50  0001 C CNN
	1    2400 5750
	1    0    0    -1  
$EndComp
$Comp
L Switch:SW_Push SW_3V3
U 1 1 5C333E34
P 2400 6100
F 0 "SW_3V3" H 2400 6385 50  0000 C CNN
F 1 "SW_Push" H 2400 6294 50  0000 C CNN
F 2 "" H 2400 6300 50  0001 C CNN
F 3 "" H 2400 6300 50  0001 C CNN
	1    2400 6100
	1    0    0    -1  
$EndComp
$Comp
L Switch:SW_SPST SW?
U 1 1 5C33508E
P 4000 5200
F 0 "SW?" H 4000 5435 50  0000 C CNN
F 1 "SW_SPST" H 4000 5344 50  0000 C CNN
F 2 "" H 4000 5200 50  0001 C CNN
F 3 "" H 4000 5200 50  0001 C CNN
	1    4000 5200
	1    0    0    -1  
$EndComp
$Comp
L Connector:Screw_Terminal_01x02 J?
U 1 1 5C33517D
P 5450 3750
F 0 "J?" H 5450 3900 50  0000 L CNN
F 1 "Screw_Terminal_01x02" H 5950 3700 50  0000 L CNN
F 2 "" H 5450 3750 50  0001 C CNN
F 3 "~" H 5450 3750 50  0001 C CNN
	1    5450 3750
	1    0    0    -1  
$EndComp
$Comp
L Connector_Generic:Conn_01x02 J?
U 1 1 5C335349
P 3800 5400
F 0 "J?" V 3673 5480 50  0000 L CNN
F 1 "Conn_01x02" V 3764 5480 50  0000 L CNN
F 2 "" H 3800 5400 50  0001 C CNN
F 3 "~" H 3800 5400 50  0001 C CNN
	1    3800 5400
	0    1    1    0   
$EndComp
$Comp
L Connector_Generic:Conn_01x02 J?
U 1 1 5C3353D7
P 3800 5750
F 0 "J?" V 3673 5830 50  0000 L CNN
F 1 "Conn_01x02" V 3764 5830 50  0000 L CNN
F 2 "" H 3800 5750 50  0001 C CNN
F 3 "~" H 3800 5750 50  0001 C CNN
	1    3800 5750
	0    1    1    0   
$EndComp
$Comp
L Connector_Generic:Conn_01x02 J?
U 1 1 5C33546A
P 4950 5400
F 0 "J?" V 4823 5480 50  0000 L CNN
F 1 "Conn_01x02" V 4914 5480 50  0000 L CNN
F 2 "" H 4950 5400 50  0001 C CNN
F 3 "~" H 4950 5400 50  0001 C CNN
	1    4950 5400
	0    1    1    0   
$EndComp
$Comp
L Connector_Generic:Conn_01x02 J?
U 1 1 5C335506
P 3800 6100
F 0 "J?" V 3673 6180 50  0000 L CNN
F 1 "Conn_01x02" V 3764 6180 50  0000 L CNN
F 2 "" H 3800 6100 50  0001 C CNN
F 3 "~" H 3800 6100 50  0001 C CNN
	1    3800 6100
	0    1    1    0   
$EndComp
Wire Wire Line
	5250 3300 5250 3550
Connection ~ 4550 3850
Wire Wire Line
	4150 3850 4550 3850
Wire Wire Line
	4150 3550 4550 3550
Connection ~ 4550 3550
Wire Wire Line
	5150 3550 5250 3550
Connection ~ 5250 3550
Wire Wire Line
	5250 3550 5250 3750
Wire Wire Line
	3700 5200 3000 5200
Connection ~ 3000 5200
Wire Wire Line
	3000 5200 3000 5550
Wire Wire Line
	4200 5000 4200 5200
Wire Wire Line
	3700 5550 3000 5550
Connection ~ 3000 5550
Wire Wire Line
	4200 5200 4200 5550
Wire Wire Line
	4200 5550 3800 5550
Connection ~ 4200 5200
$Comp
L Connector_Generic:Conn_01x02 J?
U 1 1 5C33BCD2
P 4950 5750
F 0 "J?" V 4823 5830 50  0000 L CNN
F 1 "Conn_01x02" V 4914 5830 50  0000 L CNN
F 2 "" H 4950 5750 50  0001 C CNN
F 3 "~" H 4950 5750 50  0001 C CNN
	1    4950 5750
	0    1    1    0   
$EndComp
$Comp
L Connector_Generic:Conn_01x02 J?
U 1 1 5C33BD4F
P 4950 6100
F 0 "J?" V 4823 6180 50  0000 L CNN
F 1 "Conn_01x02" V 4914 6180 50  0000 L CNN
F 2 "" H 4950 6100 50  0001 C CNN
F 3 "~" H 4950 6100 50  0001 C CNN
	1    4950 6100
	0    1    1    0   
$EndComp
Wire Wire Line
	4850 5200 4650 5200
Wire Wire Line
	4650 5200 4650 3850
Connection ~ 4650 3850
Wire Wire Line
	4650 3850 4550 3850
Wire Wire Line
	4650 5200 4650 5550
Wire Wire Line
	4650 5550 4850 5550
Connection ~ 4650 5200
Wire Wire Line
	4650 5550 4650 5900
Wire Wire Line
	4650 5900 4850 5900
Connection ~ 4650 5550
Wire Wire Line
	5300 5000 5300 5050
Wire Wire Line
	5300 5200 4950 5200
Wire Wire Line
	5300 5200 5300 5550
Wire Wire Line
	5300 5550 4950 5550
Connection ~ 5300 5200
Wire Wire Line
	5300 5550 5300 5900
Wire Wire Line
	5300 5900 4950 5900
Connection ~ 5300 5550
Wire Wire Line
	2600 5400 2600 5750
Wire Wire Line
	2600 5750 2600 6100
Connection ~ 2600 5750
Wire Wire Line
	2600 6100 2600 6450
Connection ~ 2600 6100
Wire Wire Line
	3650 3300 2200 3300
Wire Wire Line
	2200 3300 2200 5400
Connection ~ 3650 3300
Wire Wire Line
	2100 5000 2100 5750
Wire Wire Line
	2100 5750 2200 5750
Wire Wire Line
	4200 5000 2100 5000
Connection ~ 4200 5000
Wire Wire Line
	5300 5050 2050 5050
Wire Wire Line
	2050 5050 2050 6100
Wire Wire Line
	2050 6100 2200 6100
Connection ~ 5300 5050
Wire Wire Line
	5300 5050 5300 5200
Wire Wire Line
	3000 5550 3000 5900
Wire Wire Line
	3800 5900 4200 5900
Wire Wire Line
	4200 5900 4200 5550
Connection ~ 4200 5550
Wire Wire Line
	3700 5900 3000 5900
Connection ~ 3000 5900
Wire Wire Line
	3000 5900 3000 6450
$Comp
L Connector:Conn_01x02_Male J?
U 1 1 5C350EA4
P 5550 3750
F 0 "J?" H 5656 3928 50  0000 C CNN
F 1 "Conn_01x02_Male" H 6050 3950 50  0000 C CNN
F 2 "" H 5550 3750 50  0001 C CNN
F 3 "~" H 5550 3750 50  0001 C CNN
	1    5550 3750
	1    0    0    -1  
$EndComp
Wire Wire Line
	6050 2700 6050 3750
Wire Wire Line
	6050 3750 5750 3750
Wire Wire Line
	5800 2800 5800 3850
Wire Wire Line
	5800 3850 5750 3850
Wire Wire Line
	5650 2800 5800 2800
Wire Wire Line
	3650 3850 3750 3850
Wire Wire Line
	3000 4000 3750 4000
Wire Wire Line
	3750 4000 3750 3850
Wire Wire Line
	3000 4000 3000 5200
Connection ~ 3750 3850
Wire Wire Line
	3750 3850 4050 3850
Text Notes 2600 3750 0    50   ~ 0
12V Charger
Text Label 6050 3100 0    50   ~ 0
11.1V
Text Label 5800 3100 0    50   ~ 0
GND
Text Notes 4200 3450 0    50   ~ 0
LC Filter
NoConn ~ 3500 4600
NoConn ~ 4600 4600
Text Notes 3450 5450 0    50   ~ 0
RPi
Connection ~ 5800 3850
Wire Wire Line
	4650 3850 5150 3850
$EndSCHEMATC
